00:00:00.414270 VirtualBox GUI VM Selector Window 6.1.0 r135406 linux.amd64 (Dec 10 2019 17:14:20) release log
00:00:00.414272 Log opened 2020-02-28T23:41:57.315956000Z
00:00:00.414272 Build Type: release
00:00:00.414275 OS Product: Linux
00:00:00.414276 OS Release: 4.19.0-8-amd64
00:00:00.414277 OS Version: #1 SMP Debian 4.19.98-1 (2020-01-26)
00:00:00.414296 DMI Product Name: All Series
00:00:00.414301 DMI Product Version: System Version
00:00:00.414307 Firmware type: UEFI
00:00:00.414482 Secure Boot: Disabled
00:00:00.414516 Host RAM: 11952MB (11.6GB) total, 9792MB (9.5GB) available
00:00:00.414519 Executable: /usr/lib/virtualbox/VirtualBox
00:00:00.414520 Process ID: 5092
00:00:00.414520 Package type: LINUX_64BITS_DEBIAN_10_0
00:00:00.414538 Qt version: 5.11.3
00:00:00.442606 GUI: UIMediumEnumerator: Medium-enumeration started...
00:00:00.854470 GUI: UIDesktopWidgetWatchdog::sltHandleHostScreenAvailableGeometryCalculated: Screen 0 work area is actually resized to: 78x27 x 1842x1053
00:00:00.858602 GUI: UIDesktopWidgetWatchdog::sltHandleHostScreenAvailableGeometryCalculated: Screen 1 work area is actually resized to: 1920x27 x 1920x1053
00:00:00.926207 GUI: UIMediumEnumerator: Medium-enumeration finished!
00:00:55.091594 GUI: UIMediumEnumerator: Medium-enumeration finished!
00:01:15.189179 GUI: UIMediumEnumerator: Medium-enumeration finished!
00:01:15.537481 GUI: UIMediumEnumerator: Medium-enumeration finished!
00:13:18.300441 GUI: UIMediumEnumerator: Medium-enumeration finished!
