00:00:00.451129 VirtualBox GUI VM Selector Window 6.1.0 r135406 linux.amd64 (Dec 10 2019 17:14:20) release log
00:00:00.451130 Log opened 2020-02-26T21:18:10.531759000Z
00:00:00.451131 Build Type: release
00:00:00.451134 OS Product: Linux
00:00:00.451134 OS Release: 4.19.0-8-amd64
00:00:00.451135 OS Version: #1 SMP Debian 4.19.98-1 (2020-01-26)
00:00:00.451155 DMI Product Name: All Series
00:00:00.451160 DMI Product Version: System Version
00:00:00.451166 Firmware type: UEFI
00:00:00.451300 Secure Boot: Disabled
00:00:00.451334 Host RAM: 11952MB (11.6GB) total, 10447MB (10.2GB) available
00:00:00.451337 Executable: /usr/lib/virtualbox/VirtualBox
00:00:00.451337 Process ID: 4294
00:00:00.451338 Package type: LINUX_64BITS_DEBIAN_10_0
00:00:00.451356 Qt version: 5.11.3
00:00:00.487178 GUI: UIMediumEnumerator: Medium-enumeration started...
00:00:00.910964 GUI: UIDesktopWidgetWatchdog::sltHandleHostScreenAvailableGeometryCalculated: Screen 0 work area is actually resized to: 78x27 x 1842x1053
00:00:00.915128 GUI: UIDesktopWidgetWatchdog::sltHandleHostScreenAvailableGeometryCalculated: Screen 1 work area is actually resized to: 1920x27 x 1920x1053
00:00:00.981302 GUI: UIMediumEnumerator: Medium-enumeration finished!
00:00:21.322580 2D support test succeeded
00:00:28.107183 GUI: UIMediumEnumerator: Medium-enumeration finished!
00:00:28.112451 GUI: UIMediumEnumerator: Medium-enumeration finished!
00:27:02.890042 GUI: UICommon::sltHandleCommitDataRequest: Emergency shutdown initiated
