00:00:00.262235 VirtualBox GUI VM Selector Window 6.1.4 r136177 linux.amd64 (Mar  9 2020 22:39:15) release log
00:00:00.262236 Log opened 2020-03-11T12:33:39.856889000Z
00:00:00.262237 Build Type: release
00:00:00.262238 OS Product: Linux
00:00:00.262239 OS Release: 5.5.8-arch1-1
00:00:00.262240 OS Version: #1 SMP PREEMPT Fri, 06 Mar 2020 00:57:33 +0000
00:00:00.262254 DMI Product Name: All Series
00:00:00.262259 DMI Product Version: System Version
00:00:00.262262 Firmware type: UEFI
00:00:00.262376 Secure Boot: Disabled
00:00:00.262403 Host RAM: 11924MB (11.6GB) total, 8218MB (8.0GB) available
00:00:00.262406 Executable: /usr/lib/virtualbox/VirtualBox
00:00:00.262406 Process ID: 13054
00:00:00.262406 Package type: LINUX_64BITS_GENERIC (OSE)
00:00:00.262425 Qt version: 5.14.1
00:00:00.282743 GUI: UIMediumEnumerator: Medium-enumeration started...
00:00:00.534386 GUI: UIDesktopWidgetWatchdog::sltHandleHostScreenAvailableGeometryCalculated: Screen 0 work area is actually resized to: 0x27 x 1920x1053
00:00:00.540130 GUI: UIDesktopWidgetWatchdog::sltHandleHostScreenAvailableGeometryCalculated: Screen 1 work area is actually resized to: 1920x0 x 1920x1080
00:00:00.561451 GUI: UIMediumEnumerator: Medium-enumeration finished!
00:00:17.001941 GUI: UIMediumEnumerator: Medium with key={{9ccf635d-3bef-40f8-97a5-df4da7839713}} created
00:00:17.456875 GUI: UIMediumEnumerator: Medium-enumeration finished!
00:00:20.369361 2D support test succeeded
00:00:31.999304 GUI: UIMediumEnumerator: Medium with key={{4ee515c1-23a8-4e5e-95cd-d23df351a191}} created
00:00:32.092733 GUI: UIMediumEnumerator: Medium-enumeration finished!
00:00:33.110235 GUI: UIMediumEnumerator: Medium-enumeration finished!
00:00:33.363772 GUI: UIMediumEnumerator: Medium-enumeration finished!
00:00:45.415440 ERROR [COM]: aRC=NS_ERROR_UNEXPECTED (0x8000ffff) aIID={c0447716-ff5a-4795-b57a-ecd5fffa18a4} aComponent={SessionWrap} aText={The session is not locked (session state: Unlocked)}, preserve=false aResultDetail=0
