00:00:00.426316 VirtualBox GUI VM Selector Window 6.1.12 r139181 linux.amd64 (Aug 11 2020 08:53:49) release log
00:00:00.426317 Log opened 2020-08-16T09:10:21.094405000Z
00:00:00.426318 Build Type: release
00:00:00.426319 OS Product: Linux
00:00:00.426320 OS Release: 5.7.11-arch1-1
00:00:00.426321 OS Version: #1 SMP PREEMPT Wed, 29 Jul 2020 21:38:21 +0000
00:00:00.426333 DMI Product Name: All Series
00:00:00.426338 DMI Product Version: System Version
00:00:00.426341 Firmware type: UEFI
00:00:00.426447 Secure Boot: Disabled
00:00:00.426473 Host RAM: 11921MB (11.6GB) total, 11148MB (10.8GB) available
00:00:00.426476 Executable: /usr/lib/virtualbox/VirtualBox
00:00:00.426476 Process ID: 8474
00:00:00.426476 Package type: LINUX_64BITS_GENERIC (OSE)
00:00:00.426494 Qt version: 5.15.0
00:00:00.521351 GUI: UIMediumEnumerator: Medium-enumeration started...
00:00:00.979040 GUI: UIDesktopWidgetWatchdog::sltHandleHostScreenAvailableGeometryCalculated: Screen 1 work area is actually resized to: 0x39 x 1918x1039
00:00:00.980587 GUI: UIDesktopWidgetWatchdog::sltHandleHostScreenAvailableGeometryCalculated: Screen 0 work area is actually resized to: 0x39 x 1918x1039
00:00:00.995996 GUI: UIMediumEnumerator: Medium-enumeration finished!
00:14:33.539387 GUI: UIMediumEnumerator: Medium with key={{a3584c74-3310-4e9d-adbc-500ef9628543}} created
00:14:34.029025 GUI: UIMediumEnumerator: Medium-enumeration finished!
00:15:04.820013 GUI: UIMediumEnumerator: Medium with key={{2e7b56c4-462d-41cd-987c-bd616aaa5717}} created
00:15:04.958628 GUI: UIMediumEnumerator: Medium-enumeration finished!
00:15:06.276291 GUI: UIMediumEnumerator: Medium-enumeration finished!
00:15:06.597072 GUI: UIMediumEnumerator: Medium-enumeration finished!
00:15:41.918220 ERROR [COM]: aRC=NS_ERROR_UNEXPECTED (0x8000ffff) aIID={c0447716-ff5a-4795-b57a-ecd5fffa18a4} aComponent={SessionWrap} aText={The session is not locked (session state: Unlocked)}, preserve=false aResultDetail=0
01:04:18.236437 ERROR [COM]: aRC=NS_ERROR_UNEXPECTED (0x8000ffff) aIID={c0447716-ff5a-4795-b57a-ecd5fffa18a4} aComponent={SessionWrap} aText={The session is not locked (session state: Unlocked)}, preserve=false aResultDetail=0
01:04:18.236498 Log rotated - Log started 2020-08-16T09:10:21.094405000Z
