00:00:00.491903 VirtualBox GUI VM Selector Window 6.1.4 r136177 linux.amd64 (Mar  9 2020 22:39:15) release log
00:00:00.491905 Log opened 2020-03-11T12:32:46.525607000Z
00:00:00.491905 Build Type: release
00:00:00.491907 OS Product: Linux
00:00:00.491908 OS Release: 5.5.8-arch1-1
00:00:00.491909 OS Version: #1 SMP PREEMPT Fri, 06 Mar 2020 00:57:33 +0000
00:00:00.491926 DMI Product Name: All Series
00:00:00.491933 DMI Product Version: System Version
00:00:00.491937 Firmware type: UEFI
00:00:00.492087 Secure Boot: Disabled
00:00:00.492126 Host RAM: 11924MB (11.6GB) total, 8218MB (8.0GB) available
00:00:00.492129 Executable: /usr/lib/virtualbox/VirtualBox
00:00:00.492129 Process ID: 12651
00:00:00.492130 Package type: LINUX_64BITS_GENERIC (OSE)
00:00:00.492152 Qt version: 5.14.1
00:00:00.600362 GUI: UIMediumEnumerator: Medium-enumeration started...
00:00:00.871250 GUI: UIDesktopWidgetWatchdog::sltHandleHostScreenAvailableGeometryCalculated: Screen 0 work area is actually resized to: 0x27 x 1920x1053
00:00:00.878555 GUI: UIDesktopWidgetWatchdog::sltHandleHostScreenAvailableGeometryCalculated: Screen 1 work area is actually resized to: 1920x0 x 1920x1080
00:00:00.922140 GUI: UIMediumEnumerator: Medium-enumeration finished!
00:00:34.837093 ERROR [COM]: aRC=NS_ERROR_UNEXPECTED (0x8000ffff) aIID={c0447716-ff5a-4795-b57a-ecd5fffa18a4} aComponent={SessionWrap} aText={The session is not locked (session state: Unlocked)}, preserve=false aResultDetail=0
