00:00:00.573863 VirtualBox GUI VM Selector Window 6.1.12 r139181 linux.amd64 (Aug 11 2020 08:53:49) release log
00:00:00.573865 Log opened 2020-08-16T10:18:54.029087000Z
00:00:00.573865 Build Type: release
00:00:00.573866 OS Product: Linux
00:00:00.573867 OS Release: 5.8.1-arch1-1
00:00:00.573868 OS Version: #1 SMP PREEMPT Wed, 12 Aug 2020 18:50:43 +0000
00:00:00.573879 DMI Product Name: All Series
00:00:00.573883 DMI Product Version: System Version
00:00:00.573886 Firmware type: UEFI
00:00:00.574100 Secure Boot: Disabled
00:00:00.574151 Host RAM: 11919MB (11.6GB) total, 10774MB (10.5GB) available
00:00:00.574153 Executable: /usr/lib/virtualbox/VirtualBox
00:00:00.574154 Process ID: 1599
00:00:00.574154 Package type: LINUX_64BITS_GENERIC (OSE)
00:00:00.574170 Qt version: 5.15.0
00:00:00.678523 GUI: UIMediumEnumerator: Medium-enumeration started...
00:00:01.317754 GUI: UIDesktopWidgetWatchdog::sltHandleHostScreenAvailableGeometryCalculated: Screen 1 work area is actually resized to: 0x39 x 1918x1039
00:00:01.319687 GUI: UIDesktopWidgetWatchdog::sltHandleHostScreenAvailableGeometryCalculated: Screen 0 work area is actually resized to: 0x39 x 1918x1039
00:00:01.340046 GUI: UIMediumEnumerator: Medium-enumeration finished!
00:00:30.520117 GUI: UIMediumEnumerator: Medium-enumeration finished!
00:00:31.371648 GUI: UIMediumEnumerator: Medium-enumeration finished!
00:00:31.376587 GUI: UIMediumEnumerator: Medium-enumeration finished!
00:00:46.180050 GUI: UIMediumEnumerator: Medium-enumeration finished!
00:01:27.562690 GUI: UIMediumEnumerator: Medium-enumeration finished!
00:02:36.041758 GUI: UIMediumEnumerator: Medium-enumeration finished!
00:03:17.119047 GUI: UIMediumEnumerator: Medium-enumeration finished!
00:06:29.887365 GUI: UIMediumEnumerator: Medium-enumeration finished!
00:06:50.976119 GUI: UIMediumEnumerator: Medium-enumeration finished!
00:11:33.718368 GUI: UIMediumEnumerator: Medium-enumeration finished!
00:17:15.535272 VirtualBoxClient: detected unresponsive VBoxSVC (rc=NS_ERROR_CALL_FAILED)
