00:00:00.346851 VirtualBox GUI VM Selector Window 6.1.12 r139181 linux.amd64 (Aug 11 2020 08:53:49) release log
00:00:00.346853 Log opened 2020-08-16T10:16:40.569088000Z
00:00:00.346853 Build Type: release
00:00:00.346854 OS Product: Linux
00:00:00.346855 OS Release: 5.7.11-arch1-1
00:00:00.346856 OS Version: #1 SMP PREEMPT Wed, 29 Jul 2020 21:38:21 +0000
00:00:00.346870 DMI Product Name: All Series
00:00:00.346875 DMI Product Version: System Version
00:00:00.346878 Firmware type: UEFI
00:00:00.347011 Secure Boot: Disabled
00:00:00.347043 Host RAM: 11921MB (11.6GB) total, 9993MB (9.7GB) available
00:00:00.347045 Executable: /usr/lib/virtualbox/VirtualBox
00:00:00.347046 Process ID: 29401
00:00:00.347046 Package type: LINUX_64BITS_GENERIC (OSE)
00:00:00.347066 Qt version: 5.15.0
00:00:00.426108 GUI: UIMediumEnumerator: Medium-enumeration started...
00:00:00.843309 GUI: UIDesktopWidgetWatchdog::sltHandleHostScreenAvailableGeometryCalculated: Screen 1 work area is actually resized to: 0x39 x 1918x1039
00:00:00.844648 GUI: UIDesktopWidgetWatchdog::sltHandleHostScreenAvailableGeometryCalculated: Screen 0 work area is actually resized to: 0x39 x 1918x1039
00:00:00.863331 GUI: UIMediumEnumerator: Medium-enumeration finished!
00:00:09.985206 ERROR [COM]: aRC=NS_ERROR_UNEXPECTED (0x8000ffff) aIID={c0447716-ff5a-4795-b57a-ecd5fffa18a4} aComponent={SessionWrap} aText={The session is not locked (session state: Unlocked)}, preserve=false aResultDetail=0
