00:00:00.206940 VirtualBox GUI VM Selector Window 6.1.12 r139181 linux.amd64 (Aug 11 2020 08:53:49) release log
00:00:00.206941 Log opened 2020-08-16T10:16:57.086740000Z
00:00:00.206942 Build Type: release
00:00:00.206944 OS Product: Linux
00:00:00.206945 OS Release: 5.7.11-arch1-1
00:00:00.206946 OS Version: #1 SMP PREEMPT Wed, 29 Jul 2020 21:38:21 +0000
00:00:00.206964 DMI Product Name: All Series
00:00:00.206971 DMI Product Version: System Version
00:00:00.206975 Firmware type: UEFI
00:00:00.207081 Secure Boot: Disabled
00:00:00.207115 Host RAM: 11921MB (11.6GB) total, 9890MB (9.6GB) available
00:00:00.207118 Executable: /usr/lib/virtualbox/VirtualBox
00:00:00.207119 Process ID: 29494
00:00:00.207119 Package type: LINUX_64BITS_GENERIC (OSE)
00:00:00.207143 Qt version: 5.15.0
00:00:00.297018 GUI: UIMediumEnumerator: Medium-enumeration started...
00:00:00.712014 GUI: UIDesktopWidgetWatchdog::sltHandleHostScreenAvailableGeometryCalculated: Screen 1 work area is actually resized to: 0x39 x 1918x1039
00:00:00.713680 GUI: UIDesktopWidgetWatchdog::sltHandleHostScreenAvailableGeometryCalculated: Screen 0 work area is actually resized to: 0x39 x 1918x1039
00:00:00.737566 GUI: UIMediumEnumerator: Medium-enumeration finished!
00:00:09.952183 ERROR [COM]: aRC=NS_ERROR_UNEXPECTED (0x8000ffff) aIID={c0447716-ff5a-4795-b57a-ecd5fffa18a4} aComponent={SessionWrap} aText={The session is not locked (session state: Unlocked)}, preserve=false aResultDetail=0
00:00:52.911030 ERROR [COM]: aRC=NS_ERROR_UNEXPECTED (0x8000ffff) aIID={c0447716-ff5a-4795-b57a-ecd5fffa18a4} aComponent={SessionWrap} aText={The session is not locked (session state: Unlocked)}, preserve=false aResultDetail=0
