00:00:00.002039 main     VirtualBox XPCOM Server 6.1.0 r135406 linux.amd64 (Dec 10 2019 17:14:20) release log
00:00:00.002041 main     Log opened 2020-02-23T10:57:13.100844000Z
00:00:00.002042 main     Build Type: release
00:00:00.002048 main     OS Product: Linux
00:00:00.002049 main     OS Release: 4.19.0-8-amd64
00:00:00.002050 main     OS Version: #1 SMP Debian 4.19.98-1 (2020-01-26)
00:00:00.002071 main     DMI Product Name: All Series
00:00:00.002076 main     DMI Product Version: System Version
00:00:00.002082 main     Firmware type: UEFI
00:00:00.002234 main     Secure Boot: Disabled
00:00:00.002283 main     Host RAM: 11952MB (11.6GB) total, 10358MB (10.1GB) available
00:00:00.002287 main     Executable: /usr/lib/virtualbox/VBoxSVC
00:00:00.002287 main     Process ID: 3004
00:00:00.002288 main     Package type: LINUX_64BITS_DEBIAN_10_0
00:00:00.003303 main     IPC socket path: /tmp/.vbox-nedo-ipc/ipcd
00:00:00.108627 nspr-2   VirtualBox: object creation starts
00:00:00.110304 nspr-2   Home directory: '/home/nedo/.config/VirtualBox'
00:00:00.110888 nspr-2   Loading settings file "/home/nedo/.config/VirtualBox/VirtualBox.xml" with version "1.14-linux"
00:00:00.118021 nspr-2   NetIfAdpCtlOut: VBoxNetAdpCtl: Error while retrieving link status for wlp4s0: VBoxNetAdpCtl: ioctl failed: Operation not supported
00:00:00.118696 nspr-2   HostDnsMonitor: initializing
00:00:00.118858 nspr-2   NAT: resolv.conf: nameserver 192.168.0.22
00:00:00.118879 nspr-2   HostDnsMonitor: updating information
00:00:00.118888 nspr-2   HostDnsMonitor: old information
00:00:00.118890 nspr-2     no server entries
00:00:00.118892 nspr-2     no domain set
00:00:00.118893 nspr-2     no search string entries
00:00:00.118895 nspr-2   HostDnsMonitor: new information
00:00:00.118897 nspr-2     server 1: 192.168.0.22
00:00:00.118899 nspr-2     no domain set
00:00:00.118900 nspr-2     no search string entries
00:00:00.122979 nspr-2   VD: VDInit finished with VINF_SUCCESS
00:00:00.162958 nspr-2   XML error at '/home/nedo/VirtualBox VMs/arch/arch.vbox' line 1: Document is empty
00:00:00.167942 nspr-2   ERROR [COM]: aRC=NS_ERROR_FAILURE (0x80004005) aIID={85632c68-b5bb-4316-a900-5eb28d3413df} aComponent={MachineWrap} aText={Document is empty.
00:00:00.167948 nspr-2   Location: '/home/nedo/VirtualBox VMs/arch/arch.vbox', line 1 (0), column 1.
00:00:00.167949 nspr-2   /home/vbox/vbox-6.1.0/src/VBox/Main/src-server/MachineImpl.cpp[758] (nsresult Machine::i_registeredInit())}, preserve=false aResultDetail=0
00:00:00.168436 nspr-2   ERROR [COM]: aRC=NS_ERROR_FAILURE (0x80004005) aIID={85632c68-b5bb-4316-a900-5eb28d3413df} aComponent={MachineWrap} aText={Runtime error opening '/home/nedo/VirtualBox VMs/arch Clone/arch Clone.vbox' for reading: -102 (File not found.).
00:00:00.168439 nspr-2   /home/vbox/vbox-6.1.0/src/VBox/Main/src-server/MachineImpl.cpp[758] (nsresult Machine::i_registeredInit())}, preserve=false aResultDetail=0
00:00:00.174853 nspr-2   Loading settings file "/home/nedo/VirtualBox VMs/Arch Linux bare bones/Arch Linux bare bones.vbox" with version "1.16-linux"
00:00:00.176697 nspr-2   VirtualBox: object created
00:00:00.670028 nspr-5   XML error at '/home/nedo/VirtualBox VMs/arch/arch.vbox' line 1: Document is empty
00:00:00.670085 nspr-5   ERROR [COM]: aRC=NS_ERROR_FAILURE (0x80004005) aIID={85632c68-b5bb-4316-a900-5eb28d3413df} aComponent={MachineWrap} aText={Document is empty.
00:00:00.670090 nspr-5   Location: '/home/nedo/VirtualBox VMs/arch/arch.vbox', line 1 (0), column 1.
00:00:00.670090 nspr-5   /home/vbox/vbox-6.1.0/src/VBox/Main/src-server/MachineImpl.cpp[758] (nsresult Machine::i_registeredInit())}, preserve=false aResultDetail=0
00:00:00.670314 nspr-4   XML error at '/home/nedo/VirtualBox VMs/arch/arch.vbox' line 1: Document is empty
00:00:00.670345 nspr-4   ERROR [COM]: aRC=NS_ERROR_FAILURE (0x80004005) aIID={85632c68-b5bb-4316-a900-5eb28d3413df} aComponent={MachineWrap} aText={Document is empty.
00:00:00.670348 nspr-4   Location: '/home/nedo/VirtualBox VMs/arch/arch.vbox', line 1 (0), column 1.
00:00:00.670349 nspr-4   /home/vbox/vbox-6.1.0/src/VBox/Main/src-server/MachineImpl.cpp[758] (nsresult Machine::i_registeredInit())}, preserve=false aResultDetail=0
00:00:00.670771 nspr-5   XML error at '/home/nedo/VirtualBox VMs/arch/arch.vbox' line 1: Document is empty
00:00:00.670806 nspr-5   ERROR [COM]: aRC=NS_ERROR_FAILURE (0x80004005) aIID={85632c68-b5bb-4316-a900-5eb28d3413df} aComponent={MachineWrap} aText={Document is empty.
00:00:00.670809 nspr-5   Location: '/home/nedo/VirtualBox VMs/arch/arch.vbox', line 1 (0), column 1.
00:00:00.670810 nspr-5   /home/vbox/vbox-6.1.0/src/VBox/Main/src-server/MachineImpl.cpp[758] (nsresult Machine::i_registeredInit())}, preserve=false aResultDetail=0
00:00:00.672004 nspr-3   ERROR [COM]: aRC=NS_ERROR_FAILURE (0x80004005) aIID={85632c68-b5bb-4316-a900-5eb28d3413df} aComponent={MachineWrap} aText={Runtime error opening '/home/nedo/VirtualBox VMs/arch Clone/arch Clone.vbox' for reading: -102 (File not found.).
00:00:00.672007 nspr-3   /home/vbox/vbox-6.1.0/src/VBox/Main/src-server/MachineImpl.cpp[758] (nsresult Machine::i_registeredInit())}, preserve=false aResultDetail=0
00:00:00.672187 nspr-5   ERROR [COM]: aRC=NS_ERROR_FAILURE (0x80004005) aIID={85632c68-b5bb-4316-a900-5eb28d3413df} aComponent={MachineWrap} aText={Runtime error opening '/home/nedo/VirtualBox VMs/arch Clone/arch Clone.vbox' for reading: -102 (File not found.).
00:00:00.672190 nspr-5   /home/vbox/vbox-6.1.0/src/VBox/Main/src-server/MachineImpl.cpp[758] (nsresult Machine::i_registeredInit())}, preserve=false aResultDetail=0
00:00:00.672576 nspr-3   ERROR [COM]: aRC=NS_ERROR_FAILURE (0x80004005) aIID={85632c68-b5bb-4316-a900-5eb28d3413df} aComponent={MachineWrap} aText={Runtime error opening '/home/nedo/VirtualBox VMs/arch Clone/arch Clone.vbox' for reading: -102 (File not found.).
00:00:00.672579 nspr-3   /home/vbox/vbox-6.1.0/src/VBox/Main/src-server/MachineImpl.cpp[758] (nsresult Machine::i_registeredInit())}, preserve=false aResultDetail=0
00:00:00.690996 nspr-5   ERROR [COM]: aRC=E_ACCESSDENIED (0x80070005) aIID={85632c68-b5bb-4316-a900-5eb28d3413df} aComponent={MachineWrap} aText={The object functionality is limited}, preserve=false aResultDetail=0
00:00:00.691011 nspr-5   ERROR [COM]: aRC=E_ACCESSDENIED (0x80070005) aIID={85632c68-b5bb-4316-a900-5eb28d3413df} aComponent={MachineWrap} aText={The object functionality is limited}, preserve=false aResultDetail=0
00:00:00.691017 nspr-5   ERROR [COM]: aRC=VBOX_E_OBJECT_NOT_FOUND (0x80bb0001) aIID={d0a0163f-e254-4e5b-a1f2-011cf991c38d} aComponent={VirtualBoxWrap} aText={Could not find a registered machine named 'arch Clone'}, preserve=false aResultDetail=0
00:00:01.741383 nspr-2   Saving settings file "/home/nedo/.config/VirtualBox/VirtualBox.xml" with version "1.14-linux"
00:00:02.263701 nspr-3   Saving settings file "/home/nedo/.config/VirtualBox/VirtualBox.xml" with version "1.14-linux"
00:00:07.613841 nspr-3   ERROR [COM]: aRC=E_ACCESSDENIED (0x80070005) aIID={85632c68-b5bb-4316-a900-5eb28d3413df} aComponent={MachineWrap} aText={The object functionality is limited}, preserve=false aResultDetail=0
00:00:07.625061 nspr-3   XML error at '/home/nedo/VirtualBox VMs/arch/arch.vbox' line 1: Document is empty
00:00:07.625129 nspr-3   ERROR [COM]: aRC=NS_ERROR_FAILURE (0x80004005) aIID={85632c68-b5bb-4316-a900-5eb28d3413df} aComponent={MachineWrap} aText={Document is empty.
00:00:07.625135 nspr-3   Location: '/home/nedo/VirtualBox VMs/arch/arch.vbox', line 1 (0), column 1.
00:00:07.625135 nspr-3   /home/vbox/vbox-6.1.0/src/VBox/Main/src-server/MachineImpl.cpp[758] (nsresult Machine::i_registeredInit())}, preserve=false aResultDetail=0
00:00:07.628358 nspr-4   XML error at '/home/nedo/VirtualBox VMs/arch/arch.vbox' line 1: Document is empty
00:00:07.628426 nspr-4   ERROR [COM]: aRC=NS_ERROR_FAILURE (0x80004005) aIID={85632c68-b5bb-4316-a900-5eb28d3413df} aComponent={MachineWrap} aText={Document is empty.
00:00:07.628431 nspr-4   Location: '/home/nedo/VirtualBox VMs/arch/arch.vbox', line 1 (0), column 1.
00:00:07.628432 nspr-4   /home/vbox/vbox-6.1.0/src/VBox/Main/src-server/MachineImpl.cpp[758] (nsresult Machine::i_registeredInit())}, preserve=false aResultDetail=0
00:00:07.649986 nspr-5   XML error at '/home/nedo/VirtualBox VMs/arch/arch.vbox' line 1: Document is empty
00:00:07.650044 nspr-5   ERROR [COM]: aRC=NS_ERROR_FAILURE (0x80004005) aIID={85632c68-b5bb-4316-a900-5eb28d3413df} aComponent={MachineWrap} aText={Document is empty.
00:00:07.650048 nspr-5   Location: '/home/nedo/VirtualBox VMs/arch/arch.vbox', line 1 (0), column 1.
00:00:07.650048 nspr-5   /home/vbox/vbox-6.1.0/src/VBox/Main/src-server/MachineImpl.cpp[758] (nsresult Machine::i_registeredInit())}, preserve=false aResultDetail=0
00:00:07.650256 nspr-3   ERROR [COM]: aRC=E_ACCESSDENIED (0x80070005) aIID={85632c68-b5bb-4316-a900-5eb28d3413df} aComponent={MachineWrap} aText={The object functionality is limited}, preserve=false aResultDetail=0
00:00:07.650805 nspr-3   ERROR [COM]: aRC=E_ACCESSDENIED (0x80070005) aIID={85632c68-b5bb-4316-a900-5eb28d3413df} aComponent={MachineWrap} aText={The object functionality is limited}, preserve=false aResultDetail=0
00:00:07.651406 nspr-3   ERROR [COM]: aRC=E_ACCESSDENIED (0x80070005) aIID={85632c68-b5bb-4316-a900-5eb28d3413df} aComponent={MachineWrap} aText={The object functionality is limited}, preserve=false aResultDetail=0
00:00:07.651917 nspr-3   ERROR [COM]: aRC=E_ACCESSDENIED (0x80070005) aIID={85632c68-b5bb-4316-a900-5eb28d3413df} aComponent={MachineWrap} aText={The object functionality is limited}, preserve=false aResultDetail=0
00:00:07.653107 nspr-3   XML error at '/home/nedo/VirtualBox VMs/arch/arch.vbox' line 1: Document is empty
00:00:07.653150 nspr-3   ERROR [COM]: aRC=NS_ERROR_FAILURE (0x80004005) aIID={85632c68-b5bb-4316-a900-5eb28d3413df} aComponent={MachineWrap} aText={Document is empty.
00:00:07.653153 nspr-3   Location: '/home/nedo/VirtualBox VMs/arch/arch.vbox', line 1 (0), column 1.
00:00:07.653153 nspr-3   /home/vbox/vbox-6.1.0/src/VBox/Main/src-server/MachineImpl.cpp[758] (nsresult Machine::i_registeredInit())}, preserve=false aResultDetail=0
00:00:07.654105 nspr-4   XML error at '/home/nedo/VirtualBox VMs/arch/arch.vbox' line 1: Document is empty
00:00:07.654151 nspr-4   ERROR [COM]: aRC=NS_ERROR_FAILURE (0x80004005) aIID={85632c68-b5bb-4316-a900-5eb28d3413df} aComponent={MachineWrap} aText={Document is empty.
00:00:07.654155 nspr-4   Location: '/home/nedo/VirtualBox VMs/arch/arch.vbox', line 1 (0), column 1.
00:00:07.654156 nspr-4   /home/vbox/vbox-6.1.0/src/VBox/Main/src-server/MachineImpl.cpp[758] (nsresult Machine::i_registeredInit())}, preserve=false aResultDetail=0
00:00:07.654839 nspr-5   XML error at '/home/nedo/VirtualBox VMs/arch/arch.vbox' line 1: Document is empty
00:00:07.654864 nspr-5   ERROR [COM]: aRC=NS_ERROR_FAILURE (0x80004005) aIID={85632c68-b5bb-4316-a900-5eb28d3413df} aComponent={MachineWrap} aText={Document is empty.
00:00:07.654867 nspr-5   Location: '/home/nedo/VirtualBox VMs/arch/arch.vbox', line 1 (0), column 1.
00:00:07.654867 nspr-5   /home/vbox/vbox-6.1.0/src/VBox/Main/src-server/MachineImpl.cpp[758] (nsresult Machine::i_registeredInit())}, preserve=false aResultDetail=0
00:00:07.655532 nspr-3   XML error at '/home/nedo/VirtualBox VMs/arch/arch.vbox' line 1: Document is empty
00:00:07.655571 nspr-3   ERROR [COM]: aRC=NS_ERROR_FAILURE (0x80004005) aIID={85632c68-b5bb-4316-a900-5eb28d3413df} aComponent={MachineWrap} aText={Document is empty.
00:00:07.655574 nspr-3   Location: '/home/nedo/VirtualBox VMs/arch/arch.vbox', line 1 (0), column 1.
00:00:07.655575 nspr-3   /home/vbox/vbox-6.1.0/src/VBox/Main/src-server/MachineImpl.cpp[758] (nsresult Machine::i_registeredInit())}, preserve=false aResultDetail=0
00:00:07.656820 nspr-4   XML error at '/home/nedo/VirtualBox VMs/arch/arch.vbox' line 1: Document is empty
00:00:07.656853 nspr-4   ERROR [COM]: aRC=NS_ERROR_FAILURE (0x80004005) aIID={85632c68-b5bb-4316-a900-5eb28d3413df} aComponent={MachineWrap} aText={Document is empty.
00:00:07.656856 nspr-4   Location: '/home/nedo/VirtualBox VMs/arch/arch.vbox', line 1 (0), column 1.
00:00:07.656856 nspr-4   /home/vbox/vbox-6.1.0/src/VBox/Main/src-server/MachineImpl.cpp[758] (nsresult Machine::i_registeredInit())}, preserve=false aResultDetail=0
00:00:07.658065 nspr-5   XML error at '/home/nedo/VirtualBox VMs/arch/arch.vbox' line 1: Document is empty
00:00:07.658104 nspr-5   ERROR [COM]: aRC=NS_ERROR_FAILURE (0x80004005) aIID={85632c68-b5bb-4316-a900-5eb28d3413df} aComponent={MachineWrap} aText={Document is empty.
00:00:07.658107 nspr-5   Location: '/home/nedo/VirtualBox VMs/arch/arch.vbox', line 1 (0), column 1.
00:00:07.658108 nspr-5   /home/vbox/vbox-6.1.0/src/VBox/Main/src-server/MachineImpl.cpp[758] (nsresult Machine::i_registeredInit())}, preserve=false aResultDetail=0
00:03:35.447824 nspr-4   ERROR [COM]: aRC=E_ACCESSDENIED (0x80070005) aIID={85632c68-b5bb-4316-a900-5eb28d3413df} aComponent={MachineWrap} aText={The object functionality is limited}, preserve=false aResultDetail=0
00:03:35.449379 nspr-4   ERROR [COM]: aRC=NS_ERROR_FAILURE (0x80004005) aIID={85632c68-b5bb-4316-a900-5eb28d3413df} aComponent={MachineWrap} aText={Runtime error opening '/home/nedo/VirtualBox VMs/arch Clone/arch Clone.vbox' for reading: -102 (File not found.).
00:03:35.449386 nspr-4   /home/vbox/vbox-6.1.0/src/VBox/Main/src-server/MachineImpl.cpp[758] (nsresult Machine::i_registeredInit())}, preserve=false aResultDetail=0
00:03:35.451256 nspr-2   ERROR [COM]: aRC=NS_ERROR_FAILURE (0x80004005) aIID={85632c68-b5bb-4316-a900-5eb28d3413df} aComponent={MachineWrap} aText={Runtime error opening '/home/nedo/VirtualBox VMs/arch Clone/arch Clone.vbox' for reading: -102 (File not found.).
00:03:35.451262 nspr-2   /home/vbox/vbox-6.1.0/src/VBox/Main/src-server/MachineImpl.cpp[758] (nsresult Machine::i_registeredInit())}, preserve=false aResultDetail=0
00:03:35.451847 nspr-5   ERROR [COM]: aRC=NS_ERROR_FAILURE (0x80004005) aIID={85632c68-b5bb-4316-a900-5eb28d3413df} aComponent={MachineWrap} aText={Runtime error opening '/home/nedo/VirtualBox VMs/arch Clone/arch Clone.vbox' for reading: -102 (File not found.).
00:03:35.451852 nspr-5   /home/vbox/vbox-6.1.0/src/VBox/Main/src-server/MachineImpl.cpp[758] (nsresult Machine::i_registeredInit())}, preserve=false aResultDetail=0
00:03:35.452299 nspr-4   ERROR [COM]: aRC=E_ACCESSDENIED (0x80070005) aIID={85632c68-b5bb-4316-a900-5eb28d3413df} aComponent={MachineWrap} aText={The object functionality is limited}, preserve=false aResultDetail=0
00:03:35.453394 nspr-4   ERROR [COM]: aRC=E_ACCESSDENIED (0x80070005) aIID={85632c68-b5bb-4316-a900-5eb28d3413df} aComponent={MachineWrap} aText={The object functionality is limited}, preserve=false aResultDetail=0
00:03:35.454137 nspr-4   ERROR [COM]: aRC=NS_ERROR_FAILURE (0x80004005) aIID={85632c68-b5bb-4316-a900-5eb28d3413df} aComponent={MachineWrap} aText={Runtime error opening '/home/nedo/VirtualBox VMs/arch Clone/arch Clone.vbox' for reading: -102 (File not found.).
00:03:35.454141 nspr-4   /home/vbox/vbox-6.1.0/src/VBox/Main/src-server/MachineImpl.cpp[758] (nsresult Machine::i_registeredInit())}, preserve=false aResultDetail=0
00:03:35.454469 nspr-2   ERROR [COM]: aRC=NS_ERROR_FAILURE (0x80004005) aIID={85632c68-b5bb-4316-a900-5eb28d3413df} aComponent={MachineWrap} aText={Runtime error opening '/home/nedo/VirtualBox VMs/arch Clone/arch Clone.vbox' for reading: -102 (File not found.).
00:03:35.454474 nspr-2   /home/vbox/vbox-6.1.0/src/VBox/Main/src-server/MachineImpl.cpp[758] (nsresult Machine::i_registeredInit())}, preserve=false aResultDetail=0
00:03:35.454754 nspr-5   ERROR [COM]: aRC=NS_ERROR_FAILURE (0x80004005) aIID={85632c68-b5bb-4316-a900-5eb28d3413df} aComponent={MachineWrap} aText={Runtime error opening '/home/nedo/VirtualBox VMs/arch Clone/arch Clone.vbox' for reading: -102 (File not found.).
00:03:35.454758 nspr-5   /home/vbox/vbox-6.1.0/src/VBox/Main/src-server/MachineImpl.cpp[758] (nsresult Machine::i_registeredInit())}, preserve=false aResultDetail=0
00:03:35.455087 nspr-4   ERROR [COM]: aRC=NS_ERROR_FAILURE (0x80004005) aIID={85632c68-b5bb-4316-a900-5eb28d3413df} aComponent={MachineWrap} aText={Runtime error opening '/home/nedo/VirtualBox VMs/arch Clone/arch Clone.vbox' for reading: -102 (File not found.).
00:03:35.455092 nspr-4   /home/vbox/vbox-6.1.0/src/VBox/Main/src-server/MachineImpl.cpp[758] (nsresult Machine::i_registeredInit())}, preserve=false aResultDetail=0
00:03:35.455417 nspr-2   ERROR [COM]: aRC=NS_ERROR_FAILURE (0x80004005) aIID={85632c68-b5bb-4316-a900-5eb28d3413df} aComponent={MachineWrap} aText={Runtime error opening '/home/nedo/VirtualBox VMs/arch Clone/arch Clone.vbox' for reading: -102 (File not found.).
00:03:35.455421 nspr-2   /home/vbox/vbox-6.1.0/src/VBox/Main/src-server/MachineImpl.cpp[758] (nsresult Machine::i_registeredInit())}, preserve=false aResultDetail=0
00:03:35.455739 nspr-5   ERROR [COM]: aRC=NS_ERROR_FAILURE (0x80004005) aIID={85632c68-b5bb-4316-a900-5eb28d3413df} aComponent={MachineWrap} aText={Runtime error opening '/home/nedo/VirtualBox VMs/arch Clone/arch Clone.vbox' for reading: -102 (File not found.).
00:03:35.455742 nspr-5   /home/vbox/vbox-6.1.0/src/VBox/Main/src-server/MachineImpl.cpp[758] (nsresult Machine::i_registeredInit())}, preserve=false aResultDetail=0
00:03:37.889522 nspr-5   Saving settings file "/home/nedo/.config/VirtualBox/VirtualBox.xml" with version "1.14-linux"
00:03:37.988291 nspr-4   Saving settings file "/home/nedo/.config/VirtualBox/VirtualBox.xml" with version "1.14-linux"
00:03:38.061836 nspr-4   Saving settings file "/home/nedo/.config/VirtualBox/VirtualBox.xml" with version "1.14-linux"
00:03:38.129450 nspr-5   Saving settings file "/home/nedo/.config/VirtualBox/VirtualBox.xml" with version "1.14-linux"
00:03:39.955290 nspr-3   XML error at '/home/nedo/VirtualBox VMs/arch/arch.vbox' line 1: Document is empty
00:03:39.955343 nspr-3   ERROR [COM]: aRC=NS_ERROR_FAILURE (0x80004005) aIID={85632c68-b5bb-4316-a900-5eb28d3413df} aComponent={MachineWrap} aText={Document is empty.
00:03:39.955347 nspr-3   Location: '/home/nedo/VirtualBox VMs/arch/arch.vbox', line 1 (0), column 1.
00:03:39.955348 nspr-3   /home/vbox/vbox-6.1.0/src/VBox/Main/src-server/MachineImpl.cpp[758] (nsresult Machine::i_registeredInit())}, preserve=false aResultDetail=0
00:03:39.955559 nspr-5   XML error at '/home/nedo/VirtualBox VMs/arch/arch.vbox' line 1: Document is empty
00:03:39.955593 nspr-5   ERROR [COM]: aRC=NS_ERROR_FAILURE (0x80004005) aIID={85632c68-b5bb-4316-a900-5eb28d3413df} aComponent={MachineWrap} aText={Document is empty.
00:03:39.955596 nspr-5   Location: '/home/nedo/VirtualBox VMs/arch/arch.vbox', line 1 (0), column 1.
00:03:39.955596 nspr-5   /home/vbox/vbox-6.1.0/src/VBox/Main/src-server/MachineImpl.cpp[758] (nsresult Machine::i_registeredInit())}, preserve=false aResultDetail=0
00:03:39.956001 nspr-3   XML error at '/home/nedo/VirtualBox VMs/arch/arch.vbox' line 1: Document is empty
00:03:39.956024 nspr-3   ERROR [COM]: aRC=NS_ERROR_FAILURE (0x80004005) aIID={85632c68-b5bb-4316-a900-5eb28d3413df} aComponent={MachineWrap} aText={Document is empty.
00:03:39.956027 nspr-3   Location: '/home/nedo/VirtualBox VMs/arch/arch.vbox', line 1 (0), column 1.
00:03:39.956027 nspr-3   /home/vbox/vbox-6.1.0/src/VBox/Main/src-server/MachineImpl.cpp[758] (nsresult Machine::i_registeredInit())}, preserve=false aResultDetail=0
00:03:39.956759 nspr-4   ERROR [COM]: aRC=NS_ERROR_FAILURE (0x80004005) aIID={85632c68-b5bb-4316-a900-5eb28d3413df} aComponent={MachineWrap} aText={Runtime error opening '/home/nedo/VirtualBox VMs/arch Clone/arch Clone.vbox' for reading: -102 (File not found.).
00:03:39.956763 nspr-4   /home/vbox/vbox-6.1.0/src/VBox/Main/src-server/MachineImpl.cpp[758] (nsresult Machine::i_registeredInit())}, preserve=false aResultDetail=0
00:03:39.957038 nspr-3   ERROR [COM]: aRC=NS_ERROR_FAILURE (0x80004005) aIID={85632c68-b5bb-4316-a900-5eb28d3413df} aComponent={MachineWrap} aText={Runtime error opening '/home/nedo/VirtualBox VMs/arch Clone/arch Clone.vbox' for reading: -102 (File not found.).
00:03:39.957040 nspr-3   /home/vbox/vbox-6.1.0/src/VBox/Main/src-server/MachineImpl.cpp[758] (nsresult Machine::i_registeredInit())}, preserve=false aResultDetail=0
00:03:39.957566 nspr-4   ERROR [COM]: aRC=NS_ERROR_FAILURE (0x80004005) aIID={85632c68-b5bb-4316-a900-5eb28d3413df} aComponent={MachineWrap} aText={Runtime error opening '/home/nedo/VirtualBox VMs/arch Clone/arch Clone.vbox' for reading: -102 (File not found.).
00:03:39.957569 nspr-4   /home/vbox/vbox-6.1.0/src/VBox/Main/src-server/MachineImpl.cpp[758] (nsresult Machine::i_registeredInit())}, preserve=false aResultDetail=0
00:03:41.588084 nspr-2   WARNING [COM]: aRC=NS_ERROR_FAILURE (0x80004005) aIID={16ced992-5fdc-4aba-aff5-6a39bbd7c38b} aComponent={HostWrap} aText={VirtualBox is not currently allowed to access USB devices.  You can change this by adding your user to the 'vboxusers' group.  Please see the user manual for a more detailed explanation}, preserve=true  aResultDetail=0
00:03:41.669030 nspr-3   WARNING [COM]: aRC=NS_ERROR_FAILURE (0x80004005) aIID={16ced992-5fdc-4aba-aff5-6a39bbd7c38b} aComponent={HostWrap} aText={VirtualBox is not currently allowed to access USB devices.  You can change this by adding your user to the 'vboxusers' group.  Please see the user manual for a more detailed explanation}, preserve=true  aResultDetail=0
00:03:41.669938 nspr-2   WARNING [COM]: aRC=NS_ERROR_FAILURE (0x80004005) aIID={16ced992-5fdc-4aba-aff5-6a39bbd7c38b} aComponent={HostWrap} aText={VirtualBox is not currently allowed to access USB devices.  You can change this by adding your user to the 'vboxusers' group.  Please see the user manual for a more detailed explanation}, preserve=true  aResultDetail=0
00:03:42.831998 nspr-3   Launched VM: 3690997312 pid: 4640 (0x1220) frontend: GUI/Qt name: Arch Linux bare bones
00:03:42.865846 nspr-3   WARNING [COM]: aRC=NS_ERROR_FAILURE (0x80004005) aIID={16ced992-5fdc-4aba-aff5-6a39bbd7c38b} aComponent={HostWrap} aText={VirtualBox is not currently allowed to access USB devices.  You can change this by adding your user to the 'vboxusers' group.  Please see the user manual for a more detailed explanation}, preserve=true  aResultDetail=0
00:03:42.866696 nspr-3   WARNING [COM]: aRC=NS_ERROR_FAILURE (0x80004005) aIID={16ced992-5fdc-4aba-aff5-6a39bbd7c38b} aComponent={HostWrap} aText={VirtualBox is not currently allowed to access USB devices.  You can change this by adding your user to the 'vboxusers' group.  Please see the user manual for a more detailed explanation}, preserve=true  aResultDetail=0
00:03:43.073624 nspr-3   WARNING [COM]: aRC=NS_ERROR_FAILURE (0x80004005) aIID={16ced992-5fdc-4aba-aff5-6a39bbd7c38b} aComponent={HostWrap} aText={VirtualBox is not currently allowed to access USB devices.  You can change this by adding your user to the 'vboxusers' group.  Please see the user manual for a more detailed explanation}, preserve=true  aResultDetail=0
00:03:43.074435 nspr-3   WARNING [COM]: aRC=NS_ERROR_FAILURE (0x80004005) aIID={16ced992-5fdc-4aba-aff5-6a39bbd7c38b} aComponent={HostWrap} aText={VirtualBox is not currently allowed to access USB devices.  You can change this by adding your user to the 'vboxusers' group.  Please see the user manual for a more detailed explanation}, preserve=true  aResultDetail=0
00:03:43.266086 nspr-3   WARNING [COM]: aRC=NS_ERROR_FAILURE (0x80004005) aIID={16ced992-5fdc-4aba-aff5-6a39bbd7c38b} aComponent={HostWrap} aText={VirtualBox is not currently allowed to access USB devices.  You can change this by adding your user to the 'vboxusers' group.  Please see the user manual for a more detailed explanation}, preserve=true  aResultDetail=0
00:03:43.266651 nspr-5   WARNING [COM]: aRC=NS_ERROR_FAILURE (0x80004005) aIID={16ced992-5fdc-4aba-aff5-6a39bbd7c38b} aComponent={HostWrap} aText={VirtualBox is not currently allowed to access USB devices.  You can change this by adding your user to the 'vboxusers' group.  Please see the user manual for a more detailed explanation}, preserve=true  aResultDetail=0
00:03:43.266822 nspr-5   ERROR [COM]: aRC=VBOX_E_OBJECT_NOT_FOUND (0x80bb0001) aIID={70401eef-c8e9-466b-9660-45cb3e9979e4} aComponent={ExtPackManagerWrap} aText={No extension pack by the name 'Oracle VM VirtualBox Extension Pack' was found}, preserve=false aResultDetail=0
00:03:43.292829 nspr-5   WARNING [COM]: aRC=NS_ERROR_FAILURE (0x80004005) aIID={16ced992-5fdc-4aba-aff5-6a39bbd7c38b} aComponent={HostWrap} aText={VirtualBox is not currently allowed to access USB devices.  You can change this by adding your user to the 'vboxusers' group.  Please see the user manual for a more detailed explanation}, preserve=true  aResultDetail=0
00:03:43.293716 nspr-3   WARNING [COM]: aRC=NS_ERROR_FAILURE (0x80004005) aIID={16ced992-5fdc-4aba-aff5-6a39bbd7c38b} aComponent={HostWrap} aText={VirtualBox is not currently allowed to access USB devices.  You can change this by adding your user to the 'vboxusers' group.  Please see the user manual for a more detailed explanation}, preserve=true  aResultDetail=0
00:03:43.315780 nspr-3   ERROR [COM]: aRC=VBOX_E_IPRT_ERROR (0x80bb0005) aIID={85632c68-b5bb-4316-a900-5eb28d3413df} aComponent={SessionMachine} aText={Saved screenshot data is not available (VERR_NOT_SUPPORTED)}, preserve=false aResultDetail=-37
00:03:43.329334 nspr-5   NetIfAdpCtlOut: VBoxNetAdpCtl: Error while retrieving link status for wlp4s0: VBoxNetAdpCtl: ioctl failed: Operation not supported
00:03:43.422924 nspr-4   Saving settings file "/home/nedo/VirtualBox VMs/Arch Linux bare bones/Arch Linux bare bones.vbox" with version "1.16-linux"
00:03:43.548478 nspr-8   WARNING [COM]: aRC=NS_ERROR_FAILURE (0x80004005) aIID={16ced992-5fdc-4aba-aff5-6a39bbd7c38b} aComponent={HostWrap} aText={VirtualBox is not currently allowed to access USB devices.  You can change this by adding your user to the 'vboxusers' group.  Please see the user manual for a more detailed explanation}, preserve=true  aResultDetail=0
00:03:43.558987 nspr-8   WARNING [COM]: aRC=NS_ERROR_FAILURE (0x80004005) aIID={16ced992-5fdc-4aba-aff5-6a39bbd7c38b} aComponent={HostWrap} aText={VirtualBox is not currently allowed to access USB devices.  You can change this by adding your user to the 'vboxusers' group.  Please see the user manual for a more detailed explanation}, preserve=true  aResultDetail=0
00:03:43.559620 nspr-8   WARNING [COM]: aRC=NS_ERROR_FAILURE (0x80004005) aIID={16ced992-5fdc-4aba-aff5-6a39bbd7c38b} aComponent={HostWrap} aText={VirtualBox is not currently allowed to access USB devices.  You can change this by adding your user to the 'vboxusers' group.  Please see the user manual for a more detailed explanation}, preserve=true  aResultDetail=0
00:03:44.267427 nspr-6   WARNING [COM]: aRC=NS_ERROR_FAILURE (0x80004005) aIID={16ced992-5fdc-4aba-aff5-6a39bbd7c38b} aComponent={HostWrap} aText={VirtualBox is not currently allowed to access USB devices.  You can change this by adding your user to the 'vboxusers' group.  Please see the user manual for a more detailed explanation}, preserve=true  aResultDetail=0
00:03:44.268114 nspr-3   WARNING [COM]: aRC=NS_ERROR_FAILURE (0x80004005) aIID={16ced992-5fdc-4aba-aff5-6a39bbd7c38b} aComponent={HostWrap} aText={VirtualBox is not currently allowed to access USB devices.  You can change this by adding your user to the 'vboxusers' group.  Please see the user manual for a more detailed explanation}, preserve=true  aResultDetail=0
00:03:51.639798 nspr-3   WARNING [COM]: aRC=NS_ERROR_FAILURE (0x80004005) aIID={16ced992-5fdc-4aba-aff5-6a39bbd7c38b} aComponent={HostWrap} aText={VirtualBox is not currently allowed to access USB devices.  You can change this by adding your user to the 'vboxusers' group.  Please see the user manual for a more detailed explanation}, preserve=true  aResultDetail=0
00:03:51.640314 nspr-8   WARNING [COM]: aRC=NS_ERROR_FAILURE (0x80004005) aIID={16ced992-5fdc-4aba-aff5-6a39bbd7c38b} aComponent={HostWrap} aText={VirtualBox is not currently allowed to access USB devices.  You can change this by adding your user to the 'vboxusers' group.  Please see the user manual for a more detailed explanation}, preserve=true  aResultDetail=0
00:03:53.297122 nspr-7   Saving settings file "/home/nedo/VirtualBox VMs/Arch Linux bare bones/Arch Linux bare bones.vbox" with version "1.16-linux"
00:03:53.431931 nspr-3   WARNING [COM]: aRC=NS_ERROR_FAILURE (0x80004005) aIID={16ced992-5fdc-4aba-aff5-6a39bbd7c38b} aComponent={HostWrap} aText={VirtualBox is not currently allowed to access USB devices.  You can change this by adding your user to the 'vboxusers' group.  Please see the user manual for a more detailed explanation}, preserve=true  aResultDetail=0
00:03:53.432537 nspr-3   WARNING [COM]: aRC=NS_ERROR_FAILURE (0x80004005) aIID={16ced992-5fdc-4aba-aff5-6a39bbd7c38b} aComponent={HostWrap} aText={VirtualBox is not currently allowed to access USB devices.  You can change this by adding your user to the 'vboxusers' group.  Please see the user manual for a more detailed explanation}, preserve=true  aResultDetail=0
00:03:54.337440 nspr-9   WARNING [COM]: aRC=NS_ERROR_FAILURE (0x80004005) aIID={16ced992-5fdc-4aba-aff5-6a39bbd7c38b} aComponent={HostWrap} aText={VirtualBox is not currently allowed to access USB devices.  You can change this by adding your user to the 'vboxusers' group.  Please see the user manual for a more detailed explanation}, preserve=true  aResultDetail=0
00:03:54.338329 nspr-3   WARNING [COM]: aRC=NS_ERROR_FAILURE (0x80004005) aIID={16ced992-5fdc-4aba-aff5-6a39bbd7c38b} aComponent={HostWrap} aText={VirtualBox is not currently allowed to access USB devices.  You can change this by adding your user to the 'vboxusers' group.  Please see the user manual for a more detailed explanation}, preserve=true  aResultDetail=0
00:03:54.728955 nspr-8   ERROR [COM]: aRC=E_ACCESSDENIED (0x80070005) aIID={85632c68-b5bb-4316-a900-5eb28d3413df} aComponent={MachineWrap} aText={The object functionality is limited}, preserve=false aResultDetail=0
00:03:54.740192 nspr-6   XML error at '/home/nedo/VirtualBox VMs/arch/arch.vbox' line 1: Document is empty
00:03:54.740252 nspr-6   ERROR [COM]: aRC=NS_ERROR_FAILURE (0x80004005) aIID={85632c68-b5bb-4316-a900-5eb28d3413df} aComponent={MachineWrap} aText={Document is empty.
00:03:54.740256 nspr-6   Location: '/home/nedo/VirtualBox VMs/arch/arch.vbox', line 1 (0), column 1.
00:03:54.740257 nspr-6   /home/vbox/vbox-6.1.0/src/VBox/Main/src-server/MachineImpl.cpp[758] (nsresult Machine::i_registeredInit())}, preserve=false aResultDetail=0
00:03:54.748005 nspr-9   XML error at '/home/nedo/VirtualBox VMs/arch/arch.vbox' line 1: Document is empty
00:03:54.748071 nspr-9   ERROR [COM]: aRC=NS_ERROR_FAILURE (0x80004005) aIID={85632c68-b5bb-4316-a900-5eb28d3413df} aComponent={MachineWrap} aText={Document is empty.
00:03:54.748074 nspr-9   Location: '/home/nedo/VirtualBox VMs/arch/arch.vbox', line 1 (0), column 1.
00:03:54.748074 nspr-9   /home/vbox/vbox-6.1.0/src/VBox/Main/src-server/MachineImpl.cpp[758] (nsresult Machine::i_registeredInit())}, preserve=false aResultDetail=0
00:03:54.748815 nspr-2   XML error at '/home/nedo/VirtualBox VMs/arch/arch.vbox' line 1: Document is empty
00:03:54.748850 nspr-2   ERROR [COM]: aRC=NS_ERROR_FAILURE (0x80004005) aIID={85632c68-b5bb-4316-a900-5eb28d3413df} aComponent={MachineWrap} aText={Document is empty.
00:03:54.748853 nspr-2   Location: '/home/nedo/VirtualBox VMs/arch/arch.vbox', line 1 (0), column 1.
00:03:54.748853 nspr-2   /home/vbox/vbox-6.1.0/src/VBox/Main/src-server/MachineImpl.cpp[758] (nsresult Machine::i_registeredInit())}, preserve=false aResultDetail=0
00:03:54.749051 nspr-7   ERROR [COM]: aRC=E_ACCESSDENIED (0x80070005) aIID={85632c68-b5bb-4316-a900-5eb28d3413df} aComponent={MachineWrap} aText={The object functionality is limited}, preserve=false aResultDetail=0
00:03:54.749630 nspr-8   ERROR [COM]: aRC=E_ACCESSDENIED (0x80070005) aIID={85632c68-b5bb-4316-a900-5eb28d3413df} aComponent={MachineWrap} aText={The object functionality is limited}, preserve=false aResultDetail=0
00:03:54.753153 nspr-6   XML error at '/home/nedo/VirtualBox VMs/arch/arch.vbox' line 1: Document is empty
00:03:54.753181 nspr-6   ERROR [COM]: aRC=NS_ERROR_FAILURE (0x80004005) aIID={85632c68-b5bb-4316-a900-5eb28d3413df} aComponent={MachineWrap} aText={Document is empty.
00:03:54.753184 nspr-6   Location: '/home/nedo/VirtualBox VMs/arch/arch.vbox', line 1 (0), column 1.
00:03:54.753184 nspr-6   /home/vbox/vbox-6.1.0/src/VBox/Main/src-server/MachineImpl.cpp[758] (nsresult Machine::i_registeredInit())}, preserve=false aResultDetail=0
00:03:54.755359 nspr-9   XML error at '/home/nedo/VirtualBox VMs/arch/arch.vbox' line 1: Document is empty
00:03:54.755393 nspr-9   ERROR [COM]: aRC=NS_ERROR_FAILURE (0x80004005) aIID={85632c68-b5bb-4316-a900-5eb28d3413df} aComponent={MachineWrap} aText={Document is empty.
00:03:54.755396 nspr-9   Location: '/home/nedo/VirtualBox VMs/arch/arch.vbox', line 1 (0), column 1.
00:03:54.755396 nspr-9   /home/vbox/vbox-6.1.0/src/VBox/Main/src-server/MachineImpl.cpp[758] (nsresult Machine::i_registeredInit())}, preserve=false aResultDetail=0
00:03:54.758151 nspr-2   XML error at '/home/nedo/VirtualBox VMs/arch/arch.vbox' line 1: Document is empty
00:03:54.758177 nspr-2   ERROR [COM]: aRC=NS_ERROR_FAILURE (0x80004005) aIID={85632c68-b5bb-4316-a900-5eb28d3413df} aComponent={MachineWrap} aText={Document is empty.
00:03:54.758180 nspr-2   Location: '/home/nedo/VirtualBox VMs/arch/arch.vbox', line 1 (0), column 1.
00:03:54.758180 nspr-2   /home/vbox/vbox-6.1.0/src/VBox/Main/src-server/MachineImpl.cpp[758] (nsresult Machine::i_registeredInit())}, preserve=false aResultDetail=0
00:03:54.759994 nspr-7   XML error at '/home/nedo/VirtualBox VMs/arch/arch.vbox' line 1: Document is empty
00:03:54.760019 nspr-7   ERROR [COM]: aRC=NS_ERROR_FAILURE (0x80004005) aIID={85632c68-b5bb-4316-a900-5eb28d3413df} aComponent={MachineWrap} aText={Document is empty.
00:03:54.760022 nspr-7   Location: '/home/nedo/VirtualBox VMs/arch/arch.vbox', line 1 (0), column 1.
00:03:54.760022 nspr-7   /home/vbox/vbox-6.1.0/src/VBox/Main/src-server/MachineImpl.cpp[758] (nsresult Machine::i_registeredInit())}, preserve=false aResultDetail=0
00:03:54.761263 nspr-4   XML error at '/home/nedo/VirtualBox VMs/arch/arch.vbox' line 1: Document is empty
00:03:54.761291 nspr-4   ERROR [COM]: aRC=NS_ERROR_FAILURE (0x80004005) aIID={85632c68-b5bb-4316-a900-5eb28d3413df} aComponent={MachineWrap} aText={Document is empty.
00:03:54.761294 nspr-4   Location: '/home/nedo/VirtualBox VMs/arch/arch.vbox', line 1 (0), column 1.
00:03:54.761294 nspr-4   /home/vbox/vbox-6.1.0/src/VBox/Main/src-server/MachineImpl.cpp[758] (nsresult Machine::i_registeredInit())}, preserve=false aResultDetail=0
00:03:54.761931 nspr-8   XML error at '/home/nedo/VirtualBox VMs/arch/arch.vbox' line 1: Document is empty
00:03:54.761970 nspr-8   ERROR [COM]: aRC=NS_ERROR_FAILURE (0x80004005) aIID={85632c68-b5bb-4316-a900-5eb28d3413df} aComponent={MachineWrap} aText={Document is empty.
00:03:54.761973 nspr-8   Location: '/home/nedo/VirtualBox VMs/arch/arch.vbox', line 1 (0), column 1.
00:03:54.761973 nspr-8   /home/vbox/vbox-6.1.0/src/VBox/Main/src-server/MachineImpl.cpp[758] (nsresult Machine::i_registeredInit())}, preserve=false aResultDetail=0
00:04:00.628828 nspr-4   XML error at '/home/nedo/VirtualBox VMs/arch/arch.vbox' line 1: Document is empty
00:04:00.628931 nspr-4   ERROR [COM]: aRC=NS_ERROR_FAILURE (0x80004005) aIID={85632c68-b5bb-4316-a900-5eb28d3413df} aComponent={MachineWrap} aText={Document is empty.
00:04:00.628940 nspr-4   Location: '/home/nedo/VirtualBox VMs/arch/arch.vbox', line 1 (0), column 1.
00:04:00.628941 nspr-4   /home/vbox/vbox-6.1.0/src/VBox/Main/src-server/MachineImpl.cpp[758] (nsresult Machine::i_registeredInit())}, preserve=false aResultDetail=0
00:04:19.921443 nspr-7   ERROR [COM]: aRC=E_ACCESSDENIED (0x80070005) aIID={85632c68-b5bb-4316-a900-5eb28d3413df} aComponent={MachineWrap} aText={The object functionality is limited}, preserve=false aResultDetail=0
00:04:19.922729 nspr-2   ERROR [COM]: aRC=NS_ERROR_FAILURE (0x80004005) aIID={85632c68-b5bb-4316-a900-5eb28d3413df} aComponent={MachineWrap} aText={Runtime error opening '/home/nedo/VirtualBox VMs/arch Clone/arch Clone.vbox' for reading: -102 (File not found.).
00:04:19.922736 nspr-2   /home/vbox/vbox-6.1.0/src/VBox/Main/src-server/MachineImpl.cpp[758] (nsresult Machine::i_registeredInit())}, preserve=false aResultDetail=0
00:04:19.924161 nspr-3   ERROR [COM]: aRC=NS_ERROR_FAILURE (0x80004005) aIID={85632c68-b5bb-4316-a900-5eb28d3413df} aComponent={MachineWrap} aText={Runtime error opening '/home/nedo/VirtualBox VMs/arch Clone/arch Clone.vbox' for reading: -102 (File not found.).
00:04:19.924165 nspr-3   /home/vbox/vbox-6.1.0/src/VBox/Main/src-server/MachineImpl.cpp[758] (nsresult Machine::i_registeredInit())}, preserve=false aResultDetail=0
00:04:19.924593 nspr-4   ERROR [COM]: aRC=NS_ERROR_FAILURE (0x80004005) aIID={85632c68-b5bb-4316-a900-5eb28d3413df} aComponent={MachineWrap} aText={Runtime error opening '/home/nedo/VirtualBox VMs/arch Clone/arch Clone.vbox' for reading: -102 (File not found.).
00:04:19.924596 nspr-4   /home/vbox/vbox-6.1.0/src/VBox/Main/src-server/MachineImpl.cpp[758] (nsresult Machine::i_registeredInit())}, preserve=false aResultDetail=0
00:04:19.924891 nspr-9   ERROR [COM]: aRC=E_ACCESSDENIED (0x80070005) aIID={85632c68-b5bb-4316-a900-5eb28d3413df} aComponent={MachineWrap} aText={The object functionality is limited}, preserve=false aResultDetail=0
00:04:19.925472 nspr-7   ERROR [COM]: aRC=E_ACCESSDENIED (0x80070005) aIID={85632c68-b5bb-4316-a900-5eb28d3413df} aComponent={MachineWrap} aText={The object functionality is limited}, preserve=false aResultDetail=0
00:04:19.926072 nspr-2   ERROR [COM]: aRC=NS_ERROR_FAILURE (0x80004005) aIID={85632c68-b5bb-4316-a900-5eb28d3413df} aComponent={MachineWrap} aText={Runtime error opening '/home/nedo/VirtualBox VMs/arch Clone/arch Clone.vbox' for reading: -102 (File not found.).
00:04:19.926075 nspr-2   /home/vbox/vbox-6.1.0/src/VBox/Main/src-server/MachineImpl.cpp[758] (nsresult Machine::i_registeredInit())}, preserve=false aResultDetail=0
00:04:19.926311 nspr-3   ERROR [COM]: aRC=NS_ERROR_FAILURE (0x80004005) aIID={85632c68-b5bb-4316-a900-5eb28d3413df} aComponent={MachineWrap} aText={Runtime error opening '/home/nedo/VirtualBox VMs/arch Clone/arch Clone.vbox' for reading: -102 (File not found.).
00:04:19.926313 nspr-3   /home/vbox/vbox-6.1.0/src/VBox/Main/src-server/MachineImpl.cpp[758] (nsresult Machine::i_registeredInit())}, preserve=false aResultDetail=0
00:04:19.926625 nspr-4   ERROR [COM]: aRC=NS_ERROR_FAILURE (0x80004005) aIID={85632c68-b5bb-4316-a900-5eb28d3413df} aComponent={MachineWrap} aText={Runtime error opening '/home/nedo/VirtualBox VMs/arch Clone/arch Clone.vbox' for reading: -102 (File not found.).
00:04:19.926628 nspr-4   /home/vbox/vbox-6.1.0/src/VBox/Main/src-server/MachineImpl.cpp[758] (nsresult Machine::i_registeredInit())}, preserve=false aResultDetail=0
00:04:19.926908 nspr-9   ERROR [COM]: aRC=NS_ERROR_FAILURE (0x80004005) aIID={85632c68-b5bb-4316-a900-5eb28d3413df} aComponent={MachineWrap} aText={Runtime error opening '/home/nedo/VirtualBox VMs/arch Clone/arch Clone.vbox' for reading: -102 (File not found.).
00:04:19.926910 nspr-9   /home/vbox/vbox-6.1.0/src/VBox/Main/src-server/MachineImpl.cpp[758] (nsresult Machine::i_registeredInit())}, preserve=false aResultDetail=0
00:04:19.927194 nspr-8   ERROR [COM]: aRC=NS_ERROR_FAILURE (0x80004005) aIID={85632c68-b5bb-4316-a900-5eb28d3413df} aComponent={MachineWrap} aText={Runtime error opening '/home/nedo/VirtualBox VMs/arch Clone/arch Clone.vbox' for reading: -102 (File not found.).
00:04:19.927197 nspr-8   /home/vbox/vbox-6.1.0/src/VBox/Main/src-server/MachineImpl.cpp[758] (nsresult Machine::i_registeredInit())}, preserve=false aResultDetail=0
00:04:19.927510 nspr-7   ERROR [COM]: aRC=NS_ERROR_FAILURE (0x80004005) aIID={85632c68-b5bb-4316-a900-5eb28d3413df} aComponent={MachineWrap} aText={Runtime error opening '/home/nedo/VirtualBox VMs/arch Clone/arch Clone.vbox' for reading: -102 (File not found.).
00:04:19.927513 nspr-7   /home/vbox/vbox-6.1.0/src/VBox/Main/src-server/MachineImpl.cpp[758] (nsresult Machine::i_registeredInit())}, preserve=false aResultDetail=0
00:04:23.473377 nspr-6   WARNING [COM]: aRC=NS_ERROR_FAILURE (0x80004005) aIID={16ced992-5fdc-4aba-aff5-6a39bbd7c38b} aComponent={HostWrap} aText={VirtualBox is not currently allowed to access USB devices.  You can change this by adding your user to the 'vboxusers' group.  Please see the user manual for a more detailed explanation}, preserve=true  aResultDetail=0
00:04:23.552408 nspr-9   WARNING [COM]: aRC=NS_ERROR_FAILURE (0x80004005) aIID={16ced992-5fdc-4aba-aff5-6a39bbd7c38b} aComponent={HostWrap} aText={VirtualBox is not currently allowed to access USB devices.  You can change this by adding your user to the 'vboxusers' group.  Please see the user manual for a more detailed explanation}, preserve=true  aResultDetail=0
00:04:23.553301 nspr-2   WARNING [COM]: aRC=NS_ERROR_FAILURE (0x80004005) aIID={16ced992-5fdc-4aba-aff5-6a39bbd7c38b} aComponent={HostWrap} aText={VirtualBox is not currently allowed to access USB devices.  You can change this by adding your user to the 'vboxusers' group.  Please see the user manual for a more detailed explanation}, preserve=true  aResultDetail=0
00:04:25.485750 nspr-8   Launched VM: 3019926320 pid: 4699 (0x125b) frontend: GUI/Qt name: Arch Linux bare bones
00:04:25.516097 nspr-8   WARNING [COM]: aRC=NS_ERROR_FAILURE (0x80004005) aIID={16ced992-5fdc-4aba-aff5-6a39bbd7c38b} aComponent={HostWrap} aText={VirtualBox is not currently allowed to access USB devices.  You can change this by adding your user to the 'vboxusers' group.  Please see the user manual for a more detailed explanation}, preserve=true  aResultDetail=0
00:04:25.516853 nspr-4   WARNING [COM]: aRC=NS_ERROR_FAILURE (0x80004005) aIID={16ced992-5fdc-4aba-aff5-6a39bbd7c38b} aComponent={HostWrap} aText={VirtualBox is not currently allowed to access USB devices.  You can change this by adding your user to the 'vboxusers' group.  Please see the user manual for a more detailed explanation}, preserve=true  aResultDetail=0
00:04:25.719195 nspr-7   WARNING [COM]: aRC=NS_ERROR_FAILURE (0x80004005) aIID={16ced992-5fdc-4aba-aff5-6a39bbd7c38b} aComponent={HostWrap} aText={VirtualBox is not currently allowed to access USB devices.  You can change this by adding your user to the 'vboxusers' group.  Please see the user manual for a more detailed explanation}, preserve=true  aResultDetail=0
00:04:25.719931 nspr-7   WARNING [COM]: aRC=NS_ERROR_FAILURE (0x80004005) aIID={16ced992-5fdc-4aba-aff5-6a39bbd7c38b} aComponent={HostWrap} aText={VirtualBox is not currently allowed to access USB devices.  You can change this by adding your user to the 'vboxusers' group.  Please see the user manual for a more detailed explanation}, preserve=true  aResultDetail=0
00:04:25.922823 nspr-4   WARNING [COM]: aRC=NS_ERROR_FAILURE (0x80004005) aIID={16ced992-5fdc-4aba-aff5-6a39bbd7c38b} aComponent={HostWrap} aText={VirtualBox is not currently allowed to access USB devices.  You can change this by adding your user to the 'vboxusers' group.  Please see the user manual for a more detailed explanation}, preserve=true  aResultDetail=0
00:04:25.923392 nspr-9   WARNING [COM]: aRC=NS_ERROR_FAILURE (0x80004005) aIID={16ced992-5fdc-4aba-aff5-6a39bbd7c38b} aComponent={HostWrap} aText={VirtualBox is not currently allowed to access USB devices.  You can change this by adding your user to the 'vboxusers' group.  Please see the user manual for a more detailed explanation}, preserve=true  aResultDetail=0
00:04:25.923562 nspr-7   ERROR [COM]: aRC=VBOX_E_OBJECT_NOT_FOUND (0x80bb0001) aIID={70401eef-c8e9-466b-9660-45cb3e9979e4} aComponent={ExtPackManagerWrap} aText={No extension pack by the name 'Oracle VM VirtualBox Extension Pack' was found}, preserve=false aResultDetail=0
00:04:25.947461 nspr-9   WARNING [COM]: aRC=NS_ERROR_FAILURE (0x80004005) aIID={16ced992-5fdc-4aba-aff5-6a39bbd7c38b} aComponent={HostWrap} aText={VirtualBox is not currently allowed to access USB devices.  You can change this by adding your user to the 'vboxusers' group.  Please see the user manual for a more detailed explanation}, preserve=true  aResultDetail=0
00:04:25.947913 nspr-3   WARNING [COM]: aRC=NS_ERROR_FAILURE (0x80004005) aIID={16ced992-5fdc-4aba-aff5-6a39bbd7c38b} aComponent={HostWrap} aText={VirtualBox is not currently allowed to access USB devices.  You can change this by adding your user to the 'vboxusers' group.  Please see the user manual for a more detailed explanation}, preserve=true  aResultDetail=0
00:04:25.969780 nspr-7   ERROR [COM]: aRC=VBOX_E_IPRT_ERROR (0x80bb0005) aIID={85632c68-b5bb-4316-a900-5eb28d3413df} aComponent={SessionMachine} aText={Saved screenshot data is not available (VERR_NOT_SUPPORTED)}, preserve=false aResultDetail=-37
00:04:25.981201 nspr-3   NetIfAdpCtlOut: VBoxNetAdpCtl: Error while retrieving link status for wlp4s0: VBoxNetAdpCtl: ioctl failed: Operation not supported
00:04:26.027019 nspr-7   Saving settings file "/home/nedo/VirtualBox VMs/Arch Linux bare bones/Arch Linux bare bones.vbox" with version "1.16-linux"
00:04:26.107728 nspr-3   WARNING [COM]: aRC=NS_ERROR_FAILURE (0x80004005) aIID={16ced992-5fdc-4aba-aff5-6a39bbd7c38b} aComponent={HostWrap} aText={VirtualBox is not currently allowed to access USB devices.  You can change this by adding your user to the 'vboxusers' group.  Please see the user manual for a more detailed explanation}, preserve=true  aResultDetail=0
00:04:26.127842 nspr-7   WARNING [COM]: aRC=NS_ERROR_FAILURE (0x80004005) aIID={16ced992-5fdc-4aba-aff5-6a39bbd7c38b} aComponent={HostWrap} aText={VirtualBox is not currently allowed to access USB devices.  You can change this by adding your user to the 'vboxusers' group.  Please see the user manual for a more detailed explanation}, preserve=true  aResultDetail=0
00:04:26.128783 nspr-7   WARNING [COM]: aRC=NS_ERROR_FAILURE (0x80004005) aIID={16ced992-5fdc-4aba-aff5-6a39bbd7c38b} aComponent={HostWrap} aText={VirtualBox is not currently allowed to access USB devices.  You can change this by adding your user to the 'vboxusers' group.  Please see the user manual for a more detailed explanation}, preserve=true  aResultDetail=0
00:04:26.789300 nspr-2   WARNING [COM]: aRC=NS_ERROR_FAILURE (0x80004005) aIID={16ced992-5fdc-4aba-aff5-6a39bbd7c38b} aComponent={HostWrap} aText={VirtualBox is not currently allowed to access USB devices.  You can change this by adding your user to the 'vboxusers' group.  Please see the user manual for a more detailed explanation}, preserve=true  aResultDetail=0
00:04:26.790028 nspr-8   WARNING [COM]: aRC=NS_ERROR_FAILURE (0x80004005) aIID={16ced992-5fdc-4aba-aff5-6a39bbd7c38b} aComponent={HostWrap} aText={VirtualBox is not currently allowed to access USB devices.  You can change this by adding your user to the 'vboxusers' group.  Please see the user manual for a more detailed explanation}, preserve=true  aResultDetail=0
00:04:28.659839 nspr-8   WARNING [COM]: aRC=NS_ERROR_FAILURE (0x80004005) aIID={16ced992-5fdc-4aba-aff5-6a39bbd7c38b} aComponent={HostWrap} aText={VirtualBox is not currently allowed to access USB devices.  You can change this by adding your user to the 'vboxusers' group.  Please see the user manual for a more detailed explanation}, preserve=true  aResultDetail=0
00:04:28.660573 nspr-3   WARNING [COM]: aRC=NS_ERROR_FAILURE (0x80004005) aIID={16ced992-5fdc-4aba-aff5-6a39bbd7c38b} aComponent={HostWrap} aText={VirtualBox is not currently allowed to access USB devices.  You can change this by adding your user to the 'vboxusers' group.  Please see the user manual for a more detailed explanation}, preserve=true  aResultDetail=0
00:04:30.228347 nspr-7   Saving settings file "/home/nedo/VirtualBox VMs/Arch Linux bare bones/Arch Linux bare bones.vbox" with version "1.16-linux"
00:04:30.320361 nspr-7   WARNING [COM]: aRC=NS_ERROR_FAILURE (0x80004005) aIID={16ced992-5fdc-4aba-aff5-6a39bbd7c38b} aComponent={HostWrap} aText={VirtualBox is not currently allowed to access USB devices.  You can change this by adding your user to the 'vboxusers' group.  Please see the user manual for a more detailed explanation}, preserve=true  aResultDetail=0
00:04:30.320977 nspr-7   WARNING [COM]: aRC=NS_ERROR_FAILURE (0x80004005) aIID={16ced992-5fdc-4aba-aff5-6a39bbd7c38b} aComponent={HostWrap} aText={VirtualBox is not currently allowed to access USB devices.  You can change this by adding your user to the 'vboxusers' group.  Please see the user manual for a more detailed explanation}, preserve=true  aResultDetail=0
00:04:31.272211 nspr-8   WARNING [COM]: aRC=NS_ERROR_FAILURE (0x80004005) aIID={16ced992-5fdc-4aba-aff5-6a39bbd7c38b} aComponent={HostWrap} aText={VirtualBox is not currently allowed to access USB devices.  You can change this by adding your user to the 'vboxusers' group.  Please see the user manual for a more detailed explanation}, preserve=true  aResultDetail=0
00:04:31.272914 nspr-3   WARNING [COM]: aRC=NS_ERROR_FAILURE (0x80004005) aIID={16ced992-5fdc-4aba-aff5-6a39bbd7c38b} aComponent={HostWrap} aText={VirtualBox is not currently allowed to access USB devices.  You can change this by adding your user to the 'vboxusers' group.  Please see the user manual for a more detailed explanation}, preserve=true  aResultDetail=0
00:04:34.583179 nspr-2   ERROR [COM]: aRC=E_ACCESSDENIED (0x80070005) aIID={85632c68-b5bb-4316-a900-5eb28d3413df} aComponent={MachineWrap} aText={The object functionality is limited}, preserve=false aResultDetail=0
00:04:34.583204 nspr-2   ERROR [COM]: aRC=E_ACCESSDENIED (0x80070005) aIID={85632c68-b5bb-4316-a900-5eb28d3413df} aComponent={MachineWrap} aText={The object functionality is limited}, preserve=false aResultDetail=0
00:04:34.583260 nspr-2   Saving settings file "/home/nedo/.config/VirtualBox/VirtualBox.xml" with version "1.14-linux"
00:04:34.715424 DeleteVM ERROR [COM]: aRC=VBOX_E_OBJECT_IN_USE (0x80bb000c) aIID={ad47ad09-787b-44ab-b343-a082a3f2dfb1} aComponent={MediumWrap} aText={Cannot close medium '/home/nedo/VirtualBox VMs/Arch Linux bare bones/Arch Linux bare bones_1.vdi' because it has 2 child media}, preserve=false aResultDetail=0
00:04:34.715487 DeleteVM ERROR [COM]: aRC=VBOX_E_INVALID_OBJECT_STATE (0x80bb0007) aIID={ad47ad09-787b-44ab-b343-a082a3f2dfb1} aComponent={MediumWrap} aText={Storage for the medium '/home/nedo/VirtualBox VMs/Arch Linux bare bones/Arch Linux bare bones_1.vdi' is already created}, preserve=false aResultDetail=0
00:04:35.230954 nspr-4   ERROR [COM]: aRC=E_ACCESSDENIED (0x80070005) aIID={85632c68-b5bb-4316-a900-5eb28d3413df} aComponent={MachineWrap} aText={The object functionality is limited}, preserve=false aResultDetail=0
00:04:35.254282 nspr-5   ERROR [COM]: aRC=NS_ERROR_FAILURE (0x80004005) aIID={85632c68-b5bb-4316-a900-5eb28d3413df} aComponent={MachineWrap} aText={Runtime error opening '/home/nedo/VirtualBox VMs/arch Clone/arch Clone.vbox' for reading: -102 (File not found.).
00:04:35.254290 nspr-5   /home/vbox/vbox-6.1.0/src/VBox/Main/src-server/MachineImpl.cpp[758] (nsresult Machine::i_registeredInit())}, preserve=false aResultDetail=0
00:04:35.254820 nspr-6   ERROR [COM]: aRC=E_ACCESSDENIED (0x80070005) aIID={85632c68-b5bb-4316-a900-5eb28d3413df} aComponent={MachineWrap} aText={The object functionality is limited}, preserve=false aResultDetail=0
00:04:35.256122 nspr-7   ERROR [COM]: aRC=NS_ERROR_FAILURE (0x80004005) aIID={85632c68-b5bb-4316-a900-5eb28d3413df} aComponent={MachineWrap} aText={Runtime error opening '/home/nedo/VirtualBox VMs/arch Clone/arch Clone.vbox' for reading: -102 (File not found.).
00:04:35.256128 nspr-7   /home/vbox/vbox-6.1.0/src/VBox/Main/src-server/MachineImpl.cpp[758] (nsresult Machine::i_registeredInit())}, preserve=false aResultDetail=0
00:04:35.261586 nspr-9   ERROR [COM]: aRC=NS_ERROR_FAILURE (0x80004005) aIID={85632c68-b5bb-4316-a900-5eb28d3413df} aComponent={MachineWrap} aText={Runtime error opening '/home/nedo/VirtualBox VMs/arch Clone/arch Clone.vbox' for reading: -102 (File not found.).
00:04:35.261593 nspr-9   /home/vbox/vbox-6.1.0/src/VBox/Main/src-server/MachineImpl.cpp[758] (nsresult Machine::i_registeredInit())}, preserve=false aResultDetail=0
00:04:35.268439 nspr-3   ERROR [COM]: aRC=NS_ERROR_FAILURE (0x80004005) aIID={85632c68-b5bb-4316-a900-5eb28d3413df} aComponent={MachineWrap} aText={Runtime error opening '/home/nedo/VirtualBox VMs/arch Clone/arch Clone.vbox' for reading: -102 (File not found.).
00:04:35.268444 nspr-3   /home/vbox/vbox-6.1.0/src/VBox/Main/src-server/MachineImpl.cpp[758] (nsresult Machine::i_registeredInit())}, preserve=false aResultDetail=0
00:04:35.268687 nspr-2   ERROR [COM]: aRC=E_ACCESSDENIED (0x80070005) aIID={85632c68-b5bb-4316-a900-5eb28d3413df} aComponent={MachineWrap} aText={The object functionality is limited}, preserve=false aResultDetail=0
00:04:35.269293 nspr-6   ERROR [COM]: aRC=E_ACCESSDENIED (0x80070005) aIID={85632c68-b5bb-4316-a900-5eb28d3413df} aComponent={MachineWrap} aText={The object functionality is limited}, preserve=false aResultDetail=0
00:04:35.273105 nspr-7   ERROR [COM]: aRC=NS_ERROR_FAILURE (0x80004005) aIID={85632c68-b5bb-4316-a900-5eb28d3413df} aComponent={MachineWrap} aText={Runtime error opening '/home/nedo/VirtualBox VMs/arch Clone/arch Clone.vbox' for reading: -102 (File not found.).
00:04:35.273108 nspr-7   /home/vbox/vbox-6.1.0/src/VBox/Main/src-server/MachineImpl.cpp[758] (nsresult Machine::i_registeredInit())}, preserve=false aResultDetail=0
00:04:35.276178 nspr-9   ERROR [COM]: aRC=NS_ERROR_FAILURE (0x80004005) aIID={85632c68-b5bb-4316-a900-5eb28d3413df} aComponent={MachineWrap} aText={Runtime error opening '/home/nedo/VirtualBox VMs/arch Clone/arch Clone.vbox' for reading: -102 (File not found.).
00:04:35.276182 nspr-9   /home/vbox/vbox-6.1.0/src/VBox/Main/src-server/MachineImpl.cpp[758] (nsresult Machine::i_registeredInit())}, preserve=false aResultDetail=0
00:04:35.279636 nspr-3   ERROR [COM]: aRC=NS_ERROR_FAILURE (0x80004005) aIID={85632c68-b5bb-4316-a900-5eb28d3413df} aComponent={MachineWrap} aText={Runtime error opening '/home/nedo/VirtualBox VMs/arch Clone/arch Clone.vbox' for reading: -102 (File not found.).
00:04:35.279643 nspr-3   /home/vbox/vbox-6.1.0/src/VBox/Main/src-server/MachineImpl.cpp[758] (nsresult Machine::i_registeredInit())}, preserve=false aResultDetail=0
00:04:35.281599 nspr-2   ERROR [COM]: aRC=NS_ERROR_FAILURE (0x80004005) aIID={85632c68-b5bb-4316-a900-5eb28d3413df} aComponent={MachineWrap} aText={Runtime error opening '/home/nedo/VirtualBox VMs/arch Clone/arch Clone.vbox' for reading: -102 (File not found.).
00:04:35.281603 nspr-2   /home/vbox/vbox-6.1.0/src/VBox/Main/src-server/MachineImpl.cpp[758] (nsresult Machine::i_registeredInit())}, preserve=false aResultDetail=0
00:04:35.282531 nspr-5   ERROR [COM]: aRC=NS_ERROR_FAILURE (0x80004005) aIID={85632c68-b5bb-4316-a900-5eb28d3413df} aComponent={MachineWrap} aText={Runtime error opening '/home/nedo/VirtualBox VMs/arch Clone/arch Clone.vbox' for reading: -102 (File not found.).
00:04:35.282534 nspr-5   /home/vbox/vbox-6.1.0/src/VBox/Main/src-server/MachineImpl.cpp[758] (nsresult Machine::i_registeredInit())}, preserve=false aResultDetail=0
00:04:35.283201 nspr-6   ERROR [COM]: aRC=NS_ERROR_FAILURE (0x80004005) aIID={85632c68-b5bb-4316-a900-5eb28d3413df} aComponent={MachineWrap} aText={Runtime error opening '/home/nedo/VirtualBox VMs/arch Clone/arch Clone.vbox' for reading: -102 (File not found.).
00:04:35.283204 nspr-6   /home/vbox/vbox-6.1.0/src/VBox/Main/src-server/MachineImpl.cpp[758] (nsresult Machine::i_registeredInit())}, preserve=false aResultDetail=0
00:04:38.211327 nspr-7   ERROR [COM]: aRC=NS_ERROR_FAILURE (0x80004005) aIID={85632c68-b5bb-4316-a900-5eb28d3413df} aComponent={MachineWrap} aText={Runtime error opening '/home/nedo/VirtualBox VMs/arch Clone/arch Clone.vbox' for reading: -102 (File not found.).
00:04:38.211333 nspr-7   /home/vbox/vbox-6.1.0/src/VBox/Main/src-server/MachineImpl.cpp[758] (nsresult Machine::i_registeredInit())}, preserve=false aResultDetail=0
00:04:41.214824 nspr-6   Saving settings file "/home/nedo/.config/VirtualBox/VirtualBox.xml" with version "1.14-linux"
00:04:41.296975 nspr-3   ERROR [COM]: aRC=E_ACCESSDENIED (0x80070005) aIID={85632c68-b5bb-4316-a900-5eb28d3413df} aComponent={MachineWrap} aText={The object functionality is limited}, preserve=false aResultDetail=0
00:04:41.299310 nspr-8   XML error at '/home/nedo/VirtualBox VMs/arch/arch.vbox' line 1: Document is empty
00:04:41.299368 nspr-8   ERROR [COM]: aRC=NS_ERROR_FAILURE (0x80004005) aIID={85632c68-b5bb-4316-a900-5eb28d3413df} aComponent={MachineWrap} aText={Document is empty.
00:04:41.299371 nspr-8   Location: '/home/nedo/VirtualBox VMs/arch/arch.vbox', line 1 (0), column 1.
00:04:41.299371 nspr-8   /home/vbox/vbox-6.1.0/src/VBox/Main/src-server/MachineImpl.cpp[758] (nsresult Machine::i_registeredInit())}, preserve=false aResultDetail=0
00:04:41.300592 nspr-5   ERROR [COM]: aRC=E_ACCESSDENIED (0x80070005) aIID={85632c68-b5bb-4316-a900-5eb28d3413df} aComponent={MachineWrap} aText={The object functionality is limited}, preserve=false aResultDetail=0
00:04:41.304599 nspr-4   XML error at '/home/nedo/VirtualBox VMs/arch/arch.vbox' line 1: Document is empty
00:04:41.304647 nspr-4   ERROR [COM]: aRC=NS_ERROR_FAILURE (0x80004005) aIID={85632c68-b5bb-4316-a900-5eb28d3413df} aComponent={MachineWrap} aText={Document is empty.
00:04:41.304650 nspr-4   Location: '/home/nedo/VirtualBox VMs/arch/arch.vbox', line 1 (0), column 1.
00:04:41.304651 nspr-4   /home/vbox/vbox-6.1.0/src/VBox/Main/src-server/MachineImpl.cpp[758] (nsresult Machine::i_registeredInit())}, preserve=false aResultDetail=0
00:04:41.304991 nspr-6   XML error at '/home/nedo/VirtualBox VMs/arch/arch.vbox' line 1: Document is empty
00:04:41.305018 nspr-6   ERROR [COM]: aRC=NS_ERROR_FAILURE (0x80004005) aIID={85632c68-b5bb-4316-a900-5eb28d3413df} aComponent={MachineWrap} aText={Document is empty.
00:04:41.305021 nspr-6   Location: '/home/nedo/VirtualBox VMs/arch/arch.vbox', line 1 (0), column 1.
00:04:41.305021 nspr-6   /home/vbox/vbox-6.1.0/src/VBox/Main/src-server/MachineImpl.cpp[758] (nsresult Machine::i_registeredInit())}, preserve=false aResultDetail=0
00:04:41.305455 nspr-3   XML error at '/home/nedo/VirtualBox VMs/arch/arch.vbox' line 1: Document is empty
00:04:41.305498 nspr-3   ERROR [COM]: aRC=NS_ERROR_FAILURE (0x80004005) aIID={85632c68-b5bb-4316-a900-5eb28d3413df} aComponent={MachineWrap} aText={Document is empty.
00:04:41.305502 nspr-3   Location: '/home/nedo/VirtualBox VMs/arch/arch.vbox', line 1 (0), column 1.
00:04:41.305503 nspr-3   /home/vbox/vbox-6.1.0/src/VBox/Main/src-server/MachineImpl.cpp[758] (nsresult Machine::i_registeredInit())}, preserve=false aResultDetail=0
00:04:41.305695 nspr-8   ERROR [COM]: aRC=E_ACCESSDENIED (0x80070005) aIID={85632c68-b5bb-4316-a900-5eb28d3413df} aComponent={MachineWrap} aText={The object functionality is limited}, preserve=false aResultDetail=0
00:04:41.306274 nspr-9   ERROR [COM]: aRC=E_ACCESSDENIED (0x80070005) aIID={85632c68-b5bb-4316-a900-5eb28d3413df} aComponent={MachineWrap} aText={The object functionality is limited}, preserve=false aResultDetail=0
00:04:41.306849 nspr-6   XML error at '/home/nedo/VirtualBox VMs/arch/arch.vbox' line 1: Document is empty
00:04:41.306873 nspr-6   ERROR [COM]: aRC=NS_ERROR_FAILURE (0x80004005) aIID={85632c68-b5bb-4316-a900-5eb28d3413df} aComponent={MachineWrap} aText={Document is empty.
00:04:41.306875 nspr-6   Location: '/home/nedo/VirtualBox VMs/arch/arch.vbox', line 1 (0), column 1.
00:04:41.306875 nspr-6   /home/vbox/vbox-6.1.0/src/VBox/Main/src-server/MachineImpl.cpp[758] (nsresult Machine::i_registeredInit())}, preserve=false aResultDetail=0
00:04:41.307121 nspr-2   XML error at '/home/nedo/VirtualBox VMs/arch/arch.vbox' line 1: Document is empty
00:04:41.307144 nspr-2   ERROR [COM]: aRC=NS_ERROR_FAILURE (0x80004005) aIID={85632c68-b5bb-4316-a900-5eb28d3413df} aComponent={MachineWrap} aText={Document is empty.
00:04:41.307146 nspr-2   Location: '/home/nedo/VirtualBox VMs/arch/arch.vbox', line 1 (0), column 1.
00:04:41.307146 nspr-2   /home/vbox/vbox-6.1.0/src/VBox/Main/src-server/MachineImpl.cpp[758] (nsresult Machine::i_registeredInit())}, preserve=false aResultDetail=0
00:04:41.307379 nspr-3   XML error at '/home/nedo/VirtualBox VMs/arch/arch.vbox' line 1: Document is empty
00:04:41.307407 nspr-3   ERROR [COM]: aRC=NS_ERROR_FAILURE (0x80004005) aIID={85632c68-b5bb-4316-a900-5eb28d3413df} aComponent={MachineWrap} aText={Document is empty.
00:04:41.307410 nspr-3   Location: '/home/nedo/VirtualBox VMs/arch/arch.vbox', line 1 (0), column 1.
00:04:41.307410 nspr-3   /home/vbox/vbox-6.1.0/src/VBox/Main/src-server/MachineImpl.cpp[758] (nsresult Machine::i_registeredInit())}, preserve=false aResultDetail=0
00:04:41.307632 nspr-8   XML error at '/home/nedo/VirtualBox VMs/arch/arch.vbox' line 1: Document is empty
00:04:41.307655 nspr-8   ERROR [COM]: aRC=NS_ERROR_FAILURE (0x80004005) aIID={85632c68-b5bb-4316-a900-5eb28d3413df} aComponent={MachineWrap} aText={Document is empty.
00:04:41.307657 nspr-8   Location: '/home/nedo/VirtualBox VMs/arch/arch.vbox', line 1 (0), column 1.
00:04:41.307658 nspr-8   /home/vbox/vbox-6.1.0/src/VBox/Main/src-server/MachineImpl.cpp[758] (nsresult Machine::i_registeredInit())}, preserve=false aResultDetail=0
00:04:41.307880 nspr-5   XML error at '/home/nedo/VirtualBox VMs/arch/arch.vbox' line 1: Document is empty
00:04:41.307903 nspr-5   ERROR [COM]: aRC=NS_ERROR_FAILURE (0x80004005) aIID={85632c68-b5bb-4316-a900-5eb28d3413df} aComponent={MachineWrap} aText={Document is empty.
00:04:41.307905 nspr-5   Location: '/home/nedo/VirtualBox VMs/arch/arch.vbox', line 1 (0), column 1.
00:04:41.307905 nspr-5   /home/vbox/vbox-6.1.0/src/VBox/Main/src-server/MachineImpl.cpp[758] (nsresult Machine::i_registeredInit())}, preserve=false aResultDetail=0
00:04:41.308161 nspr-9   XML error at '/home/nedo/VirtualBox VMs/arch/arch.vbox' line 1: Document is empty
00:04:41.308187 nspr-9   ERROR [COM]: aRC=NS_ERROR_FAILURE (0x80004005) aIID={85632c68-b5bb-4316-a900-5eb28d3413df} aComponent={MachineWrap} aText={Document is empty.
00:04:41.308190 nspr-9   Location: '/home/nedo/VirtualBox VMs/arch/arch.vbox', line 1 (0), column 1.
00:04:41.308190 nspr-9   /home/vbox/vbox-6.1.0/src/VBox/Main/src-server/MachineImpl.cpp[758] (nsresult Machine::i_registeredInit())}, preserve=false aResultDetail=0
00:04:42.985578 nspr-8   XML error at '/home/nedo/VirtualBox VMs/arch/arch.vbox' line 1: Document is empty
00:04:42.985632 nspr-8   ERROR [COM]: aRC=NS_ERROR_FAILURE (0x80004005) aIID={85632c68-b5bb-4316-a900-5eb28d3413df} aComponent={MachineWrap} aText={Document is empty.
00:04:42.985637 nspr-8   Location: '/home/nedo/VirtualBox VMs/arch/arch.vbox', line 1 (0), column 1.
00:04:42.985637 nspr-8   /home/vbox/vbox-6.1.0/src/VBox/Main/src-server/MachineImpl.cpp[758] (nsresult Machine::i_registeredInit())}, preserve=false aResultDetail=0
00:04:44.815124 nspr-3   Saving settings file "/home/nedo/.config/VirtualBox/VirtualBox.xml" with version "1.14-linux"
00:05:28.499100 nspr-8   XML error at '/home/nedo/VirtualBox VMs/arch/arch.vbox' line 1: Document is empty
00:05:28.499151 nspr-8   ERROR [COM]: aRC=NS_ERROR_FAILURE (0x80004005) aIID={85632c68-b5bb-4316-a900-5eb28d3413df} aComponent={MachineWrap} aText={Document is empty.
00:05:28.499155 nspr-8   Location: '/home/nedo/VirtualBox VMs/arch/arch.vbox', line 1 (0), column 1.
00:05:28.499156 nspr-8   /home/vbox/vbox-6.1.0/src/VBox/Main/src-server/MachineImpl.cpp[503] (nsresult Machine::initFromSettings(VirtualBox*, const com::Utf8Str&, const com::Guid*))}, preserve=false aResultDetail=0
00:06:39.116608 nspr-4   XML error at '/home.orig/nedo/VirtualBox VMs/arch/arch.vbox' line 1: Document is empty
00:06:39.116656 nspr-4   ERROR [COM]: aRC=NS_ERROR_FAILURE (0x80004005) aIID={85632c68-b5bb-4316-a900-5eb28d3413df} aComponent={MachineWrap} aText={Document is empty.
00:06:39.116660 nspr-4   Location: '/home.orig/nedo/VirtualBox VMs/arch/arch.vbox', line 1 (0), column 1.
00:06:39.116660 nspr-4   /home/vbox/vbox-6.1.0/src/VBox/Main/src-server/MachineImpl.cpp[503] (nsresult Machine::initFromSettings(VirtualBox*, const com::Utf8Str&, const com::Guid*))}, preserve=false aResultDetail=0
00:26:43.130158 MainPower Host suspending: Paused 0 VMs
00:27:17.011107 MainPower Host resumed: Resumed 0 VMs
00:27:30.182686 nspr-6   Saving settings file "/home/nedo/.config/VirtualBox/VirtualBox.xml" with version "1.14-linux"
00:27:30.306177 nspr-9   Saving settings file "/home/nedo/.config/VirtualBox/VirtualBox.xml" with version "1.14-linux"
00:27:35.952787 main     VirtualBox: object deletion starts
00:27:35.953321 main     HostDnsMonitor: shutting down ...
00:27:35.953540 main     HostDnsMonitor: shut down
00:27:36.054288 Watcher  ERROR [COM]: aRC=E_ACCESSDENIED (0x80070005) aIID={d0a0163f-e254-4e5b-a1f2-011cf991c38d} aComponent={VirtualBoxWrap} aText={The object is not ready}, preserve=false aResultDetail=0
00:27:40.953689 main     {00007fdee0017060} HostPowerServiceLinux::~HostPowerServiceLinux: RTThreadWait() for 5000 ms failed with VERR_TIMEOUT
00:27:40.954149 main     VirtualBox: object deleted
