00:00:00.000239 main     VirtualBox XPCOM Server 6.1.4 r136177 linux.amd64 (Mar  9 2020 22:39:15) release log
00:00:00.000240 main     Log opened 2020-03-11T12:32:46.269834000Z
00:00:00.000241 main     Build Type: release
00:00:00.000242 main     OS Product: Linux
00:00:00.000243 main     OS Release: 5.5.8-arch1-1
00:00:00.000243 main     OS Version: #1 SMP PREEMPT Fri, 06 Mar 2020 00:57:33 +0000
00:00:00.000260 main     DMI Product Name: All Series
00:00:00.000265 main     DMI Product Version: System Version
00:00:00.000268 main     Firmware type: UEFI
00:00:00.000446 main     Secure Boot: Disabled
00:00:00.000474 main     Host RAM: 11924MB (11.6GB) total, 8242MB (8.0GB) available
00:00:00.000476 main     Executable: /usr/lib/virtualbox/VBoxSVC
00:00:00.000476 main     Process ID: 12686
00:00:00.000476 main     Package type: LINUX_64BITS_GENERIC (OSE)
00:00:00.001704 main     IPC socket path: /tmp/.vbox-nedo-ipc/ipcd
00:00:00.105467 nspr-2   VirtualBox: object creation starts
00:00:00.105507 nspr-2   Home directory: '/home/nedo/.config/VirtualBox'
00:00:00.145140 nspr-2   Loading settings file "/home/nedo/.config/VirtualBox/VirtualBox.xml" with version "1.14-linux"
00:00:00.151898 nspr-2   NetIfAdpCtlOut: VBoxNetAdpCtl: Error while retrieving link status for wlp4s0: VBoxNetAdpCtl: ioctl failed: Operation not supported
00:00:00.152277 nspr-2   HostDnsMonitor: initializing
00:00:00.152505 nspr-2   NAT: resolv.conf: nameserver 192.168.0.22
00:00:00.152515 nspr-2   HostDnsMonitor: updating information
00:00:00.152526 nspr-2   HostDnsMonitor: old information
00:00:00.152528 nspr-2     no server entries
00:00:00.152530 nspr-2     no domain set
00:00:00.152531 nspr-2     no search string entries
00:00:00.152533 nspr-2   HostDnsMonitor: new information
00:00:00.152534 nspr-2     server 1: 192.168.0.22
00:00:00.152536 nspr-2     no domain set
00:00:00.152538 nspr-2     no search string entries
00:00:00.154042 nspr-2   Failed to open "/dev/vboxdrvu", errno=2, rc=VERR_VM_DRIVER_NOT_INSTALLED
00:00:00.154180 nspr-2   VD: VDInit finished with VINF_SUCCESS
00:00:00.154245 nspr-2   ERROR [COM]: aRC=NS_ERROR_FAILURE (0x80004005) aIID={027bc463-929c-40e8-bf16-fea557cd8e7e} aComponent={SystemPropertiesWrap} aText={Cannot determine default Guest Additions ISO location. Most likely they are not available}, preserve=false aResultDetail=0
00:00:00.223906 nspr-2   Loading settings file "/home/nedo/VirtualBox VMs/Arch/Arch.vbox" with version "1.16-linux"
00:00:00.224926 nspr-2   VirtualBox: object created
00:00:00.688239 nspr-3   WARNING [COM]: aRC=NS_ERROR_FAILURE (0x80004005) aIID={16ced992-5fdc-4aba-aff5-6a39bbd7c38b} aComponent={HostWrap} aText={Could not load the Host USB Proxy service: VERR_NOT_FOUND}, preserve=true  aResultDetail=0
00:00:00.955414 nspr-4   Failed to open "/dev/vboxdrvu", errno=2, rc=VERR_VM_DRIVER_NOT_INSTALLED
00:00:01.036270 nspr-3   WARNING [COM]: aRC=NS_ERROR_FAILURE (0x80004005) aIID={16ced992-5fdc-4aba-aff5-6a39bbd7c38b} aComponent={HostWrap} aText={Could not load the Host USB Proxy service: VERR_NOT_FOUND}, preserve=true  aResultDetail=0
00:00:01.036990 nspr-2   WARNING [COM]: aRC=NS_ERROR_FAILURE (0x80004005) aIID={16ced992-5fdc-4aba-aff5-6a39bbd7c38b} aComponent={HostWrap} aText={Could not load the Host USB Proxy service: VERR_NOT_FOUND}, preserve=true  aResultDetail=0
00:00:04.943617 nspr-3   Launched VM: 1342186512 pid: 12715 (0x31ab) frontend: GUI/Qt name: Arch
00:00:04.963772 nspr-3   Failed to open "/dev/vboxdrvu", errno=2, rc=VERR_VM_DRIVER_NOT_INSTALLED
00:00:04.982608 nspr-3   WARNING [COM]: aRC=NS_ERROR_FAILURE (0x80004005) aIID={16ced992-5fdc-4aba-aff5-6a39bbd7c38b} aComponent={HostWrap} aText={Could not load the Host USB Proxy service: VERR_NOT_FOUND}, preserve=true  aResultDetail=0
00:00:04.983283 nspr-3   WARNING [COM]: aRC=NS_ERROR_FAILURE (0x80004005) aIID={16ced992-5fdc-4aba-aff5-6a39bbd7c38b} aComponent={HostWrap} aText={Could not load the Host USB Proxy service: VERR_NOT_FOUND}, preserve=true  aResultDetail=0
00:00:05.443921 Watcher  ERROR [COM]: aRC=NS_ERROR_FAILURE (0x80004005) aIID={85632c68-b5bb-4316-a900-5eb28d3413df} aComponent={MachineWrap} aText={The virtual machine 'Arch' has terminated unexpectedly during startup with exit code 1 (0x1)}, preserve=false aResultDetail=0
00:00:05.975501 nspr-5   Failed to open "/dev/vboxdrvu", errno=2, rc=VERR_VM_DRIVER_NOT_INSTALLED
00:00:06.018810 nspr-4   WARNING [COM]: aRC=NS_ERROR_FAILURE (0x80004005) aIID={16ced992-5fdc-4aba-aff5-6a39bbd7c38b} aComponent={HostWrap} aText={Could not load the Host USB Proxy service: VERR_NOT_FOUND}, preserve=true  aResultDetail=0
00:00:06.019565 nspr-2   WARNING [COM]: aRC=NS_ERROR_FAILURE (0x80004005) aIID={16ced992-5fdc-4aba-aff5-6a39bbd7c38b} aComponent={HostWrap} aText={Could not load the Host USB Proxy service: VERR_NOT_FOUND}, preserve=true  aResultDetail=0
00:00:35.558099 nspr-2   Saving settings file "/home/nedo/.config/VirtualBox/VirtualBox.xml" with version "1.14-linux"
00:00:35.708550 nspr-4   Saving settings file "/home/nedo/.config/VirtualBox/VirtualBox.xml" with version "1.14-linux"
00:00:35.795394 nspr-5   Saving settings file "/home/nedo/.config/VirtualBox/VirtualBox.xml" with version "1.14-linux"
00:00:41.365877 main     VirtualBox: object deletion starts
00:00:41.365914 main     ERROR [COM]: aRC=VBOX_E_OBJECT_IN_USE (0x80bb000c) aIID={ad47ad09-787b-44ab-b343-a082a3f2dfb1} aComponent={MediumWrap} aText={Medium '/home/nedo/VirtualBox VMs/Arch/Arch.vdi' cannot be closed because it is still attached to 1 virtual machines}, preserve=false aResultDetail=0
00:00:41.365936 main     ERROR [COM]: aRC=VBOX_E_OBJECT_IN_USE (0x80bb000c) aIID={ad47ad09-787b-44ab-b343-a082a3f2dfb1} aComponent={MediumWrap} aText={Medium '/home/nedo/VirtualBox VMs/Arch/Arch_home.vdi' cannot be closed because it is still attached to 1 virtual machines}, preserve=false aResultDetail=0
00:00:41.366171 main     HostDnsMonitor: shutting down ...
00:00:41.378770 main     HostDnsMonitor: shut down
00:00:41.451478 Watcher  ERROR [COM]: aRC=E_ACCESSDENIED (0x80070005) aIID={d0a0163f-e254-4e5b-a1f2-011cf991c38d} aComponent={VirtualBoxWrap} aText={The object is not ready}, preserve=false aResultDetail=0
00:00:46.378858 main     {00007f7254019110} HostPowerServiceLinux::~HostPowerServiceLinux: RTThreadWait() for 5000 ms failed with VERR_TIMEOUT
00:00:46.379225 main     VirtualBox: object deleted
