00:00:00.000248 main     VirtualBox XPCOM Server 6.1.12 r139181 linux.amd64 (Aug 11 2020 08:53:49) release log
00:00:00.000249 main     Log opened 2020-08-16T09:10:20.931059000Z
00:00:00.000250 main     Build Type: release
00:00:00.000253 main     OS Product: Linux
00:00:00.000254 main     OS Release: 5.7.11-arch1-1
00:00:00.000254 main     OS Version: #1 SMP PREEMPT Wed, 29 Jul 2020 21:38:21 +0000
00:00:00.000268 main     DMI Product Name: All Series
00:00:00.000273 main     DMI Product Version: System Version
00:00:00.000276 main     Firmware type: UEFI
00:00:00.000442 main     Secure Boot: Disabled
00:00:00.000470 main     Host RAM: 11921MB (11.6GB) total, 11150MB (10.8GB) available
00:00:00.000472 main     Executable: /usr/lib/virtualbox/VBoxSVC
00:00:00.000472 main     Process ID: 8498
00:00:00.000473 main     Package type: LINUX_64BITS_GENERIC (OSE)
00:00:00.001566 main     IPC socket path: /tmp/.vbox-nedo-ipc/ipcd
00:00:00.105759 nspr-2   VirtualBox: object creation starts
00:00:00.105813 nspr-2   Home directory: '/home/nedo/.config/VirtualBox'
00:00:00.113540 nspr-2   Loading settings file "/home/nedo/.config/VirtualBox/VirtualBox.xml" with version "1.14-linux"
00:00:00.119115 nspr-2   NetIfAdpCtlOut: VBoxNetAdpCtl: Error while retrieving link status for wlp4s0: VBoxNetAdpCtl: ioctl failed: Operation not supported
00:00:00.124974 nspr-2   HostDnsMonitor: initializing
00:00:00.125126 nspr-2   NAT: resolv.conf: nameserver 192.168.0.1
00:00:00.125135 nspr-2   NAT: resolv.conf: nameserver fdac:d309:4516::1
00:00:00.125143 nspr-2   HostDnsMonitor: updating information
00:00:00.125153 nspr-2   HostDnsMonitor: old information
00:00:00.125155 nspr-2     no server entries
00:00:00.125158 nspr-2     no domain set
00:00:00.125159 nspr-2     no search string entries
00:00:00.125161 nspr-2   HostDnsMonitor: new information
00:00:00.125163 nspr-2     server 1: 192.168.0.1
00:00:00.125166 nspr-2     server 2: fdac:d309:4516::1
00:00:00.125168 nspr-2     domain: lan
00:00:00.125170 nspr-2     no search string entries
00:00:00.126749 nspr-2   Failed to open "/dev/vboxdrvu", errno=2, rc=VERR_VM_DRIVER_NOT_INSTALLED
00:00:00.126889 nspr-2   VD: VDInit finished with VINF_SUCCESS
00:00:00.126953 nspr-2   ERROR [COM]: aRC=NS_ERROR_FAILURE (0x80004005) aIID={027bc463-929c-40e8-bf16-fea557cd8e7e} aComponent={SystemPropertiesWrap} aText={Cannot determine default Guest Additions ISO location. Most likely they are not available}, preserve=false aResultDetail=0
00:00:00.127344 nspr-2   VirtualBox: object created
00:00:00.593795 nspr-3   ERROR [COM]: aRC=VBOX_E_OBJECT_NOT_FOUND (0x80bb0001) aIID={d0a0163f-e254-4e5b-a1f2-011cf991c38d} aComponent={VirtualBoxWrap} aText={Could not find a registered machine named 'Arch'}, preserve=false aResultDetail=0
00:14:14.384047 nspr-2   Failed to open "/dev/vboxdrvu", errno=2, rc=VERR_VM_DRIVER_NOT_INSTALLED
00:14:14.386067 nspr-2   Failed to open "/dev/vboxdrvu", errno=2, rc=VERR_VM_DRIVER_NOT_INSTALLED
00:14:32.698264 createBase Saving settings file "/home/nedo/.config/VirtualBox/VirtualBox.xml" with version "1.14-linux"
00:14:33.292156 nspr-3   Saving settings file "/home/nedo/VirtualBox VMs/Arco/Arco.vbox" with version "1.16-linux"
00:14:33.384636 nspr-4   WARNING [COM]: aRC=NS_ERROR_FAILURE (0x80004005) aIID={16ced992-5fdc-4aba-aff5-6a39bbd7c38b} aComponent={HostWrap} aText={Could not load the Host USB Proxy service: VERR_NOT_FOUND}, preserve=true  aResultDetail=0
00:14:33.386565 nspr-2   Saving settings file "/home/nedo/VirtualBox VMs/Arco/Arco.vbox" with version "1.16-linux"
00:14:33.473590 nspr-2   Saving settings file "/home/nedo/.config/VirtualBox/VirtualBox.xml" with version "1.14-linux"
00:14:33.559570 nspr-4   Saving settings file "/home/nedo/.config/VirtualBox/VirtualBox.xml" with version "1.14-linux"
00:14:33.609849 nspr-2   Saving settings file "/home/nedo/VirtualBox VMs/Arco/Arco.vbox" with version "1.16-linux"
00:14:34.095554 nspr-4   WARNING [COM]: aRC=NS_ERROR_FAILURE (0x80004005) aIID={16ced992-5fdc-4aba-aff5-6a39bbd7c38b} aComponent={HostWrap} aText={Could not load the Host USB Proxy service: VERR_NOT_FOUND}, preserve=true  aResultDetail=0
00:14:34.122789 nspr-3   Failed to open "/dev/vboxdrvu", errno=2, rc=VERR_VM_DRIVER_NOT_INSTALLED
00:14:34.277494 nspr-3   WARNING [COM]: aRC=NS_ERROR_FAILURE (0x80004005) aIID={16ced992-5fdc-4aba-aff5-6a39bbd7c38b} aComponent={HostWrap} aText={Could not load the Host USB Proxy service: VERR_NOT_FOUND}, preserve=true  aResultDetail=0
00:14:34.278251 nspr-3   WARNING [COM]: aRC=NS_ERROR_FAILURE (0x80004005) aIID={16ced992-5fdc-4aba-aff5-6a39bbd7c38b} aComponent={HostWrap} aText={Could not load the Host USB Proxy service: VERR_NOT_FOUND}, preserve=true  aResultDetail=0
00:14:36.727996 nspr-3   Failed to open "/dev/vboxdrvu", errno=2, rc=VERR_VM_DRIVER_NOT_INSTALLED
00:14:36.814398 nspr-3   WARNING [COM]: aRC=NS_ERROR_FAILURE (0x80004005) aIID={16ced992-5fdc-4aba-aff5-6a39bbd7c38b} aComponent={HostWrap} aText={Could not load the Host USB Proxy service: VERR_NOT_FOUND}, preserve=true  aResultDetail=0
00:14:37.304879 nspr-3   Failed to open "/dev/vboxdrvu", errno=2, rc=VERR_VM_DRIVER_NOT_INSTALLED
00:14:37.305006 nspr-2   Failed to open "/dev/vboxdrvu", errno=2, rc=VERR_VM_DRIVER_NOT_INSTALLED
00:14:37.305098 nspr-3   Failed to open "/dev/vboxdrvu", errno=2, rc=VERR_VM_DRIVER_NOT_INSTALLED
00:14:37.314383 nspr-2   NetIfAdpCtlOut: VBoxNetAdpCtl: Error while retrieving link status for wlp4s0: VBoxNetAdpCtl: ioctl failed: Operation not supported
00:14:37.322504 nspr-2   NetIfAdpCtlOut: VBoxNetAdpCtl: Error while retrieving link status for wlp4s0: VBoxNetAdpCtl: ioctl failed: Operation not supported
00:14:37.332167 nspr-3   WARNING [COM]: aRC=NS_ERROR_FAILURE (0x80004005) aIID={16ced992-5fdc-4aba-aff5-6a39bbd7c38b} aComponent={HostWrap} aText={Could not load the Host USB Proxy service: VERR_NOT_FOUND}, preserve=true  aResultDetail=0
00:14:37.332427 nspr-2   WARNING [COM]: aRC=NS_ERROR_FAILURE (0x80004005) aIID={16ced992-5fdc-4aba-aff5-6a39bbd7c38b} aComponent={HostWrap} aText={Could not load the Host USB Proxy service: VERR_NOT_FOUND}, preserve=true  aResultDetail=0
00:14:37.534851 nspr-3   Failed to open "/dev/vboxdrvu", errno=2, rc=VERR_VM_DRIVER_NOT_INSTALLED
00:14:37.545980 nspr-3   WARNING [COM]: aRC=NS_ERROR_FAILURE (0x80004005) aIID={16ced992-5fdc-4aba-aff5-6a39bbd7c38b} aComponent={HostWrap} aText={Could not load the Host USB Proxy service: VERR_NOT_FOUND}, preserve=true  aResultDetail=0
00:14:37.546694 nspr-3   WARNING [COM]: aRC=NS_ERROR_FAILURE (0x80004005) aIID={16ced992-5fdc-4aba-aff5-6a39bbd7c38b} aComponent={HostWrap} aText={Could not load the Host USB Proxy service: VERR_NOT_FOUND}, preserve=true  aResultDetail=0
00:15:04.558132 nspr-3   Saving settings file "/home/nedo/.config/VirtualBox/VirtualBox.xml" with version "1.14-linux"
00:15:04.701417 nspr-4   Failed to open "/dev/vboxdrvu", errno=2, rc=VERR_VM_DRIVER_NOT_INSTALLED
00:15:04.717354 nspr-4   WARNING [COM]: aRC=NS_ERROR_FAILURE (0x80004005) aIID={16ced992-5fdc-4aba-aff5-6a39bbd7c38b} aComponent={HostWrap} aText={Could not load the Host USB Proxy service: VERR_NOT_FOUND}, preserve=true  aResultDetail=0
00:15:04.717924 nspr-4   WARNING [COM]: aRC=NS_ERROR_FAILURE (0x80004005) aIID={16ced992-5fdc-4aba-aff5-6a39bbd7c38b} aComponent={HostWrap} aText={Could not load the Host USB Proxy service: VERR_NOT_FOUND}, preserve=true  aResultDetail=0
00:15:05.985220 nspr-2   Saving settings file "/home/nedo/.config/VirtualBox/VirtualBox.xml" with version "1.14-linux"
00:15:06.002820 nspr-3   Failed to open "/dev/vboxdrvu", errno=2, rc=VERR_VM_DRIVER_NOT_INSTALLED
00:15:06.017384 nspr-3   Failed to open "/dev/vboxdrvu", errno=2, rc=VERR_VM_DRIVER_NOT_INSTALLED
00:15:06.035657 nspr-3   WARNING [COM]: aRC=NS_ERROR_FAILURE (0x80004005) aIID={16ced992-5fdc-4aba-aff5-6a39bbd7c38b} aComponent={HostWrap} aText={Could not load the Host USB Proxy service: VERR_NOT_FOUND}, preserve=true  aResultDetail=0
00:15:06.036338 nspr-3   WARNING [COM]: aRC=NS_ERROR_FAILURE (0x80004005) aIID={16ced992-5fdc-4aba-aff5-6a39bbd7c38b} aComponent={HostWrap} aText={Could not load the Host USB Proxy service: VERR_NOT_FOUND}, preserve=true  aResultDetail=0
00:15:06.178866 nspr-3   WARNING [COM]: aRC=NS_ERROR_FAILURE (0x80004005) aIID={16ced992-5fdc-4aba-aff5-6a39bbd7c38b} aComponent={HostWrap} aText={Could not load the Host USB Proxy service: VERR_NOT_FOUND}, preserve=true  aResultDetail=0
00:15:06.179073 nspr-3   Saving settings file "/home/nedo/VirtualBox VMs/Arco/Arco.vbox" with version "1.16-linux"
00:15:06.348767 nspr-2   Failed to open "/dev/vboxdrvu", errno=2, rc=VERR_VM_DRIVER_NOT_INSTALLED
00:15:06.400006 nspr-3   WARNING [COM]: aRC=NS_ERROR_FAILURE (0x80004005) aIID={16ced992-5fdc-4aba-aff5-6a39bbd7c38b} aComponent={HostWrap} aText={Could not load the Host USB Proxy service: VERR_NOT_FOUND}, preserve=true  aResultDetail=0
00:15:06.400566 nspr-3   WARNING [COM]: aRC=NS_ERROR_FAILURE (0x80004005) aIID={16ced992-5fdc-4aba-aff5-6a39bbd7c38b} aComponent={HostWrap} aText={Could not load the Host USB Proxy service: VERR_NOT_FOUND}, preserve=true  aResultDetail=0
00:15:07.927081 nspr-3   Launched VM: 3489671168 pid: 10975 (0x2adf) frontend: GUI/Qt name: Arco
00:15:07.950932 nspr-3   Failed to open "/dev/vboxdrvu", errno=2, rc=VERR_VM_DRIVER_NOT_INSTALLED
00:15:07.968299 nspr-3   WARNING [COM]: aRC=NS_ERROR_FAILURE (0x80004005) aIID={16ced992-5fdc-4aba-aff5-6a39bbd7c38b} aComponent={HostWrap} aText={Could not load the Host USB Proxy service: VERR_NOT_FOUND}, preserve=true  aResultDetail=0
00:15:07.968848 nspr-3   WARNING [COM]: aRC=NS_ERROR_FAILURE (0x80004005) aIID={16ced992-5fdc-4aba-aff5-6a39bbd7c38b} aComponent={HostWrap} aText={Could not load the Host USB Proxy service: VERR_NOT_FOUND}, preserve=true  aResultDetail=0
00:15:08.427963 Watcher  ERROR [COM]: aRC=NS_ERROR_FAILURE (0x80004005) aIID={85632c68-b5bb-4316-a900-5eb28d3413df} aComponent={MachineWrap} aText={The virtual machine 'Arco' has terminated unexpectedly during startup with exit code 1 (0x1)}, preserve=false aResultDetail=0
00:15:08.990083 nspr-4   Failed to open "/dev/vboxdrvu", errno=2, rc=VERR_VM_DRIVER_NOT_INSTALLED
00:15:09.011442 nspr-2   WARNING [COM]: aRC=NS_ERROR_FAILURE (0x80004005) aIID={16ced992-5fdc-4aba-aff5-6a39bbd7c38b} aComponent={HostWrap} aText={Could not load the Host USB Proxy service: VERR_NOT_FOUND}, preserve=true  aResultDetail=0
00:15:09.012024 nspr-2   WARNING [COM]: aRC=NS_ERROR_FAILURE (0x80004005) aIID={16ced992-5fdc-4aba-aff5-6a39bbd7c38b} aComponent={HostWrap} aText={Could not load the Host USB Proxy service: VERR_NOT_FOUND}, preserve=true  aResultDetail=0
00:15:48.449168 nspr-4   Launched VM: 3087011776 pid: 11057 (0x2b31) frontend: GUI/Qt name: Arco
00:15:48.468539 nspr-4   Failed to open "/dev/vboxdrvu", errno=2, rc=VERR_VM_DRIVER_NOT_INSTALLED
00:15:48.488031 nspr-4   WARNING [COM]: aRC=NS_ERROR_FAILURE (0x80004005) aIID={16ced992-5fdc-4aba-aff5-6a39bbd7c38b} aComponent={HostWrap} aText={Could not load the Host USB Proxy service: VERR_NOT_FOUND}, preserve=true  aResultDetail=0
00:15:48.488765 nspr-4   WARNING [COM]: aRC=NS_ERROR_FAILURE (0x80004005) aIID={16ced992-5fdc-4aba-aff5-6a39bbd7c38b} aComponent={HostWrap} aText={Could not load the Host USB Proxy service: VERR_NOT_FOUND}, preserve=true  aResultDetail=0
00:15:48.949801 Watcher  ERROR [COM]: aRC=NS_ERROR_FAILURE (0x80004005) aIID={85632c68-b5bb-4316-a900-5eb28d3413df} aComponent={MachineWrap} aText={The virtual machine 'Arco' has terminated unexpectedly during startup with exit code 1 (0x1)}, preserve=false aResultDetail=0
00:15:49.502792 nspr-3   Failed to open "/dev/vboxdrvu", errno=2, rc=VERR_VM_DRIVER_NOT_INSTALLED
00:15:49.526232 nspr-4   WARNING [COM]: aRC=NS_ERROR_FAILURE (0x80004005) aIID={16ced992-5fdc-4aba-aff5-6a39bbd7c38b} aComponent={HostWrap} aText={Could not load the Host USB Proxy service: VERR_NOT_FOUND}, preserve=true  aResultDetail=0
00:15:49.526794 nspr-4   WARNING [COM]: aRC=NS_ERROR_FAILURE (0x80004005) aIID={16ced992-5fdc-4aba-aff5-6a39bbd7c38b} aComponent={HostWrap} aText={Could not load the Host USB Proxy service: VERR_NOT_FOUND}, preserve=true  aResultDetail=0
01:04:35.069764 nspr-2   Saving settings file "/home/nedo/.config/VirtualBox/VirtualBox.xml" with version "1.14-linux"
01:04:35.145600 nspr-4   Saving settings file "/home/nedo/.config/VirtualBox/VirtualBox.xml" with version "1.14-linux"
01:04:35.225952 nspr-3   Saving settings file "/home/nedo/.config/VirtualBox/VirtualBox.xml" with version "1.14-linux"
01:04:35.281458 nspr-4   Saving settings file "/home/nedo/.config/VirtualBox/VirtualBox.xml" with version "1.14-linux"
01:04:35.351986 nspr-3   Saving settings file "/home/nedo/.config/VirtualBox/VirtualBox.xml" with version "1.14-linux"
01:04:40.935136 main     VirtualBox: object deletion starts
01:04:40.935219 main     ERROR [COM]: aRC=VBOX_E_OBJECT_IN_USE (0x80bb000c) aIID={ad47ad09-787b-44ab-b343-a082a3f2dfb1} aComponent={MediumWrap} aText={Medium '/home/nedo/VirtualBox VMs/Arco/Arco.vdi' cannot be closed because it is still attached to 1 virtual machines}, preserve=false aResultDetail=0
01:04:40.936015 main     HostDnsMonitor: shutting down ...
01:04:40.948227 main     HostDnsMonitor: shut down
01:04:41.137782 Watcher  ERROR [COM]: aRC=E_ACCESSDENIED (0x80070005) aIID={d0a0163f-e254-4e5b-a1f2-011cf991c38d} aComponent={VirtualBoxWrap} aText={The object is not ready}, preserve=false aResultDetail=0
01:04:45.948411 main     {00007f8ad401af20} HostPowerServiceLinux::~HostPowerServiceLinux: RTThreadWait() for 5000 ms failed with VERR_TIMEOUT
01:04:45.948921 main     VirtualBox: object deleted
