﻿{
    "Items": [
        {
            "ID": "8c64dffaabeeb48d9a5c220bc2cc6afe",
            "LastOpened": "2019-12-07 22:05:19",
            "CompareDate": "2019-12-07 22:05:19",
            "OpenCount": 2,
            "Completed": 2
        }
    ]
}