﻿{
"TotalRunTime":566.423522949219,
"Version":"Update 25.1  |  2020-04-20 22:34:27  |  17474",
"BuildRevision":17474,
"BuildDate":"2020-04-20",
"LastPlayedUTC":"2020-05-01 11:57:22",
"HasRunIntro":true,
"OptionsVersion":16,
"RunCount":1,
"SelectedLanguage":6,
"WindowHeight":1019,
"DisplacementAmount":25,
"LastBackupSave":"/home/nedo/Universe Sandbox/Simulations/Autosave/Autosave - 20200501-125244.ubox",
"FullscreenResolution":{
"Width":1920,
"Height":1080,
"RefreshRate":60
},
"WindowWidth":1920
}